{
  "contractName": "Pausable",
  "abi": [
    {
      "constant": true,
      "inputs": [
        {
          "name": "account",
          "type": "address"
        }
      ],
      "name": "isPauser",
      "outputs": [
        {
          "name": "",
          "type": "bool"
        }
      ],
      "payable": false,
      "stateMutability": "view",
      "type": "function"
    },
    {
      "constant": false,
      "inputs": [],
      "name": "renouncePauser",
      "outputs": [],
      "payable": false,
      "stateMutability": "nonpayable",
      "type": "function"
    },
    {
      "constant": false,
      "inputs": [
        {
          "name": "account",
          "type": "address"
        }
      ],
      "name": "addPauser",
      "outputs": [],
      "payable": false,
      "stateMutability": "nonpayable",
      "type": "function"
    },
    {
      "inputs": [],
      "payable": false,
      "stateMutability": "nonpayable",
      "type": "constructor"
    },
    {
      "anonymous": false,
      "inputs": [
        {
          "indexed": false,
          "name": "account",
          "type": "address"
        }
      ],
      "name": "Paused",
      "type": "event"
    },
    {
      "anonymous": false,
      "inputs": [
        {
          "indexed": false,
          "name": "account",
          "type": "address"
        }
      ],
      "name": "Unpaused",
      "type": "event"
    },
    {
      "anonymous": false,
      "inputs": [
        {
          "indexed": true,
          "name": "account",
          "type": "address"
        }
      ],
      "name": "PauserAdded",
      "type": "event"
    },
    {
      "anonymous": false,
      "inputs": [
        {
          "indexed": true,
          "name": "account",
          "type": "address"
        }
      ],
      "name": "PauserRemoved",
      "type": "event"
    },
    {
      "constant": true,
      "inputs": [],
      "name": "paused",
      "outputs": [
        {
          "name": "",
          "type": "bool"
        }
      ],
      "payable": false,
      "stateMutability": "view",
      "type": "function"
    },
    {
      "constant": false,
      "inputs": [],
      "name": "pause",
      "outputs": [],
      "payable": false,
      "stateMutability": "nonpayable",
      "type": "function"
    },
    {
      "constant": false,
      "inputs": [],
      "name": "unpause",
      "outputs": [],
      "payable": false,
      "stateMutability": "nonpayable",
      "type": "function"
    }
  ],
  "metadata": "{\"compiler\":{\"version\":\"0.5.8+commit.23d335f2\"},\"language\":\"Solidity\",\"output\":{\"abi\":[{\"constant\":false,\"inputs\":[],\"name\":\"unpause\",\"outputs\":[],\"payable\":false,\"stateMutability\":\"nonpayable\",\"type\":\"function\"},{\"constant\":true,\"inputs\":[{\"name\":\"account\",\"type\":\"address\"}],\"name\":\"isPauser\",\"outputs\":[{\"name\":\"\",\"type\":\"bool\"}],\"payable\":false,\"stateMutability\":\"view\",\"type\":\"function\"},{\"constant\":true,\"inputs\":[],\"name\":\"paused\",\"outputs\":[{\"name\":\"\",\"type\":\"bool\"}],\"payable\":false,\"stateMutability\":\"view\",\"type\":\"function\"},{\"constant\":false,\"inputs\":[],\"name\":\"renouncePauser\",\"outputs\":[],\"payable\":false,\"stateMutability\":\"nonpayable\",\"type\":\"function\"},{\"constant\":false,\"inputs\":[{\"name\":\"account\",\"type\":\"address\"}],\"name\":\"addPauser\",\"outputs\":[],\"payable\":false,\"stateMutability\":\"nonpayable\",\"type\":\"function\"},{\"constant\":false,\"inputs\":[],\"name\":\"pause\",\"outputs\":[],\"payable\":false,\"stateMutability\":\"nonpayable\",\"type\":\"function\"},{\"inputs\":[],\"payable\":false,\"stateMutability\":\"nonpayable\",\"type\":\"constructor\"},{\"anonymous\":false,\"inputs\":[{\"indexed\":false,\"name\":\"account\",\"type\":\"address\"}],\"name\":\"Paused\",\"type\":\"event\"},{\"anonymous\":false,\"inputs\":[{\"indexed\":false,\"name\":\"account\",\"type\":\"address\"}],\"name\":\"Unpaused\",\"type\":\"event\"},{\"anonymous\":false,\"inputs\":[{\"indexed\":true,\"name\":\"account\",\"type\":\"address\"}],\"name\":\"PauserAdded\",\"type\":\"event\"},{\"anonymous\":false,\"inputs\":[{\"indexed\":true,\"name\":\"account\",\"type\":\"address\"}],\"name\":\"PauserRemoved\",\"type\":\"event\"}],\"devdoc\":{\"details\":\"Base contract which allows children to implement an emergency stop mechanism.\",\"methods\":{\"pause()\":{\"details\":\"called by the owner to pause, triggers stopped state\"},\"paused()\":{\"return\":\"true if the contract is paused, false otherwise.\"},\"unpause()\":{\"details\":\"called by the owner to unpause, returns to normal state\"}},\"title\":\"Pausable\"},\"userdoc\":{\"methods\":{}}},\"settings\":{\"compilationTarget\":{\"openzeppelin-solidity/contracts/lifecycle/Pausable.sol\":\"Pausable\"},\"evmVersion\":\"constantinople\",\"libraries\":{},\"optimizer\":{\"enabled\":true,\"runs\":200},\"remappings\":[]},\"sources\":{\"openzeppelin-solidity/contracts/access/Roles.sol\":{\"keccak256\":\"0x75481aaa988c5e9fbc91b4f695678806579c04e0ad56907978c1ca5c7e92a682\",\"urls\":[\"bzzr://da472135eb9268d863825ea26e227a9f8980c54bd32e0764d61711acca59fc89\"]},\"openzeppelin-solidity/contracts/access/roles/PauserRole.sol\":{\"keccak256\":\"0xba59f59cd2062cfc65b931d5fe320a19dad139c346029fdae98df2c3059b7db6\",\"urls\":[\"bzzr://340a41b4f8fbdf86c9de46f1f6a9ab8756ff5535d75a59f824b2241eefae81ce\"]},\"openzeppelin-solidity/contracts/lifecycle/Pausable.sol\":{\"keccak256\":\"0xab1a1c414f2193d738511504f26da22024a9f18fb08859b28670d702a603bbfb\",\"urls\":[\"bzzr://007e26fd611ab1b33f11c0482c87c99abff7176fbd1529117c48726dd8c43715\"]}},\"version\":1}",
  "bytecode": "0x",
  "deployedBytecode": "0x",
  "sourceMap": "",
  "deployedSourceMap": "",
  "source": "pragma solidity ^0.5.2;\n\nimport \"../access/roles/PauserRole.sol\";\n\n/**\n * @title Pausable\n * @dev Base contract which allows children to implement an emergency stop mechanism.\n */\ncontract Pausable is PauserRole {\n    event Paused(address account);\n    event Unpaused(address account);\n\n    bool private _paused;\n\n    constructor () internal {\n        _paused = false;\n    }\n\n    /**\n     * @return true if the contract is paused, false otherwise.\n     */\n    function paused() public view returns (bool) {\n        return _paused;\n    }\n\n    /**\n     * @dev Modifier to make a function callable only when the contract is not paused.\n     */\n    modifier whenNotPaused() {\n        require(!_paused);\n        _;\n    }\n\n    /**\n     * @dev Modifier to make a function callable only when the contract is paused.\n     */\n    modifier whenPaused() {\n        require(_paused);\n        _;\n    }\n\n    /**\n     * @dev called by the owner to pause, triggers stopped state\n     */\n    function pause() public onlyPauser whenNotPaused {\n        _paused = true;\n        emit Paused(msg.sender);\n    }\n\n    /**\n     * @dev called by the owner to unpause, returns to normal state\n     */\n    function unpause() public onlyPauser whenPaused {\n        _paused = false;\n        emit Unpaused(msg.sender);\n    }\n}\n",
  "sourcePath": "openzeppelin-solidity/contracts/lifecycle/Pausable.sol",
  "ast": {
    "absolutePath": "openzeppelin-solidity/contracts/lifecycle/Pausable.sol",
    "exportedSymbols": {
      "Pausable": [
        2376
      ]
    },
    "id": 2377,
    "nodeType": "SourceUnit",
    "nodes": [
      {
        "id": 2295,
        "literals": [
          "solidity",
          "^",
          "0.5",
          ".2"
        ],
        "nodeType": "PragmaDirective",
        "src": "0:23:11"
      },
      {
        "absolutePath": "openzeppelin-solidity/contracts/access/roles/PauserRole.sol",
        "file": "../access/roles/PauserRole.sol",
        "id": 2296,
        "nodeType": "ImportDirective",
        "scope": 2377,
        "sourceUnit": 2082,
        "src": "25:40:11",
        "symbolAliases": [],
        "unitAlias": ""
      },
      {
        "baseContracts": [
          {
            "arguments": null,
            "baseName": {
              "contractScope": null,
              "id": 2297,
              "name": "PauserRole",
              "nodeType": "UserDefinedTypeName",
              "referencedDeclaration": 2081,
              "src": "201:10:11",
              "typeDescriptions": {
                "typeIdentifier": "t_contract$_PauserRole_$2081",
                "typeString": "contract PauserRole"
              }
            },
            "id": 2298,
            "nodeType": "InheritanceSpecifier",
            "src": "201:10:11"
          }
        ],
        "contractDependencies": [
          2081
        ],
        "contractKind": "contract",
        "documentation": "@title Pausable\n@dev Base contract which allows children to implement an emergency stop mechanism.",
        "fullyImplemented": true,
        "id": 2376,
        "linearizedBaseContracts": [
          2376,
          2081
        ],
        "name": "Pausable",
        "nodeType": "ContractDefinition",
        "nodes": [
          {
            "anonymous": false,
            "documentation": null,
            "id": 2302,
            "name": "Paused",
            "nodeType": "EventDefinition",
            "parameters": {
              "id": 2301,
              "nodeType": "ParameterList",
              "parameters": [
                {
                  "constant": false,
                  "id": 2300,
                  "indexed": false,
                  "name": "account",
                  "nodeType": "VariableDeclaration",
                  "scope": 2302,
                  "src": "231:15:11",
                  "stateVariable": false,
                  "storageLocation": "default",
                  "typeDescriptions": {
                    "typeIdentifier": "t_address",
                    "typeString": "address"
                  },
                  "typeName": {
                    "id": 2299,
                    "name": "address",
                    "nodeType": "ElementaryTypeName",
                    "src": "231:7:11",
                    "stateMutability": "nonpayable",
                    "typeDescriptions": {
                      "typeIdentifier": "t_address",
                      "typeString": "address"
                    }
                  },
                  "value": null,
                  "visibility": "internal"
                }
              ],
              "src": "230:17:11"
            },
            "src": "218:30:11"
          },
          {
            "anonymous": false,
            "documentation": null,
            "id": 2306,
            "name": "Unpaused",
            "nodeType": "EventDefinition",
            "parameters": {
              "id": 2305,
              "nodeType": "ParameterList",
              "parameters": [
                {
                  "constant": false,
                  "id": 2304,
                  "indexed": false,
                  "name": "account",
                  "nodeType": "VariableDeclaration",
                  "scope": 2306,
                  "src": "268:15:11",
                  "stateVariable": false,
                  "storageLocation": "default",
                  "typeDescriptions": {
                    "typeIdentifier": "t_address",
                    "typeString": "address"
                  },
                  "typeName": {
                    "id": 2303,
                    "name": "address",
                    "nodeType": "ElementaryTypeName",
                    "src": "268:7:11",
                    "stateMutability": "nonpayable",
                    "typeDescriptions": {
                      "typeIdentifier": "t_address",
                      "typeString": "address"
                    }
                  },
                  "value": null,
                  "visibility": "internal"
                }
              ],
              "src": "267:17:11"
            },
            "src": "253:32:11"
          },
          {
            "constant": false,
            "id": 2308,
            "name": "_paused",
            "nodeType": "VariableDeclaration",
            "scope": 2376,
            "src": "291:20:11",
            "stateVariable": true,
            "storageLocation": "default",
            "typeDescriptions": {
              "typeIdentifier": "t_bool",
              "typeString": "bool"
            },
            "typeName": {
              "id": 2307,
              "name": "bool",
              "nodeType": "ElementaryTypeName",
              "src": "291:4:11",
              "typeDescriptions": {
                "typeIdentifier": "t_bool",
                "typeString": "bool"
              }
            },
            "value": null,
            "visibility": "private"
          },
          {
            "body": {
              "id": 2315,
              "nodeType": "Block",
              "src": "342:32:11",
              "statements": [
                {
                  "expression": {
                    "argumentTypes": null,
                    "id": 2313,
                    "isConstant": false,
                    "isLValue": false,
                    "isPure": false,
                    "lValueRequested": false,
                    "leftHandSide": {
                      "argumentTypes": null,
                      "id": 2311,
                      "name": "_paused",
                      "nodeType": "Identifier",
                      "overloadedDeclarations": [],
                      "referencedDeclaration": 2308,
                      "src": "352:7:11",
                      "typeDescriptions": {
                        "typeIdentifier": "t_bool",
                        "typeString": "bool"
                      }
                    },
                    "nodeType": "Assignment",
                    "operator": "=",
                    "rightHandSide": {
                      "argumentTypes": null,
                      "hexValue": "66616c7365",
                      "id": 2312,
                      "isConstant": false,
                      "isLValue": false,
                      "isPure": true,
                      "kind": "bool",
                      "lValueRequested": false,
                      "nodeType": "Literal",
                      "src": "362:5:11",
                      "subdenomination": null,
                      "typeDescriptions": {
                        "typeIdentifier": "t_bool",
                        "typeString": "bool"
                      },
                      "value": "false"
                    },
                    "src": "352:15:11",
                    "typeDescriptions": {
                      "typeIdentifier": "t_bool",
                      "typeString": "bool"
                    }
                  },
                  "id": 2314,
                  "nodeType": "ExpressionStatement",
                  "src": "352:15:11"
                }
              ]
            },
            "documentation": null,
            "id": 2316,
            "implemented": true,
            "kind": "constructor",
            "modifiers": [],
            "name": "",
            "nodeType": "FunctionDefinition",
            "parameters": {
              "id": 2309,
              "nodeType": "ParameterList",
              "parameters": [],
              "src": "330:2:11"
            },
            "returnParameters": {
              "id": 2310,
              "nodeType": "ParameterList",
              "parameters": [],
              "src": "342:0:11"
            },
            "scope": 2376,
            "src": "318:56:11",
            "stateMutability": "nonpayable",
            "superFunction": null,
            "visibility": "internal"
          },
          {
            "body": {
              "id": 2323,
              "nodeType": "Block",
              "src": "505:31:11",
              "statements": [
                {
                  "expression": {
                    "argumentTypes": null,
                    "id": 2321,
                    "name": "_paused",
                    "nodeType": "Identifier",
                    "overloadedDeclarations": [],
                    "referencedDeclaration": 2308,
                    "src": "522:7:11",
                    "typeDescriptions": {
                      "typeIdentifier": "t_bool",
                      "typeString": "bool"
                    }
                  },
                  "functionReturnParameters": 2320,
                  "id": 2322,
                  "nodeType": "Return",
                  "src": "515:14:11"
                }
              ]
            },
            "documentation": "@return true if the contract is paused, false otherwise.",
            "id": 2324,
            "implemented": true,
            "kind": "function",
            "modifiers": [],
            "name": "paused",
            "nodeType": "FunctionDefinition",
            "parameters": {
              "id": 2317,
              "nodeType": "ParameterList",
              "parameters": [],
              "src": "475:2:11"
            },
            "returnParameters": {
              "id": 2320,
              "nodeType": "ParameterList",
              "parameters": [
                {
                  "constant": false,
                  "id": 2319,
                  "name": "",
                  "nodeType": "VariableDeclaration",
                  "scope": 2324,
                  "src": "499:4:11",
                  "stateVariable": false,
                  "storageLocation": "default",
                  "typeDescriptions": {
                    "typeIdentifier": "t_bool",
                    "typeString": "bool"
                  },
                  "typeName": {
                    "id": 2318,
                    "name": "bool",
                    "nodeType": "ElementaryTypeName",
                    "src": "499:4:11",
                    "typeDescriptions": {
                      "typeIdentifier": "t_bool",
                      "typeString": "bool"
                    }
                  },
                  "value": null,
                  "visibility": "internal"
                }
              ],
              "src": "498:6:11"
            },
            "scope": 2376,
            "src": "460:76:11",
            "stateMutability": "view",
            "superFunction": null,
            "visibility": "public"
          },
          {
            "body": {
              "id": 2332,
              "nodeType": "Block",
              "src": "670:45:11",
              "statements": [
                {
                  "expression": {
                    "argumentTypes": null,
                    "arguments": [
                      {
                        "argumentTypes": null,
                        "id": 2328,
                        "isConstant": false,
                        "isLValue": false,
                        "isPure": false,
                        "lValueRequested": false,
                        "nodeType": "UnaryOperation",
                        "operator": "!",
                        "prefix": true,
                        "src": "688:8:11",
                        "subExpression": {
                          "argumentTypes": null,
                          "id": 2327,
                          "name": "_paused",
                          "nodeType": "Identifier",
                          "overloadedDeclarations": [],
                          "referencedDeclaration": 2308,
                          "src": "689:7:11",
                          "typeDescriptions": {
                            "typeIdentifier": "t_bool",
                            "typeString": "bool"
                          }
                        },
                        "typeDescriptions": {
                          "typeIdentifier": "t_bool",
                          "typeString": "bool"
                        }
                      }
                    ],
                    "expression": {
                      "argumentTypes": [
                        {
                          "typeIdentifier": "t_bool",
                          "typeString": "bool"
                        }
                      ],
                      "id": 2326,
                      "name": "require",
                      "nodeType": "Identifier",
                      "overloadedDeclarations": [
                        3317,
                        3318
                      ],
                      "referencedDeclaration": 3317,
                      "src": "680:7:11",
                      "typeDescriptions": {
                        "typeIdentifier": "t_function_require_pure$_t_bool_$returns$__$",
                        "typeString": "function (bool) pure"
                      }
                    },
                    "id": 2329,
                    "isConstant": false,
                    "isLValue": false,
                    "isPure": false,
                    "kind": "functionCall",
                    "lValueRequested": false,
                    "names": [],
                    "nodeType": "FunctionCall",
                    "src": "680:17:11",
                    "typeDescriptions": {
                      "typeIdentifier": "t_tuple$__$",
                      "typeString": "tuple()"
                    }
                  },
                  "id": 2330,
                  "nodeType": "ExpressionStatement",
                  "src": "680:17:11"
                },
                {
                  "id": 2331,
                  "nodeType": "PlaceholderStatement",
                  "src": "707:1:11"
                }
              ]
            },
            "documentation": "@dev Modifier to make a function callable only when the contract is not paused.",
            "id": 2333,
            "name": "whenNotPaused",
            "nodeType": "ModifierDefinition",
            "parameters": {
              "id": 2325,
              "nodeType": "ParameterList",
              "parameters": [],
              "src": "667:2:11"
            },
            "src": "645:70:11",
            "visibility": "internal"
          },
          {
            "body": {
              "id": 2340,
              "nodeType": "Block",
              "src": "842:44:11",
              "statements": [
                {
                  "expression": {
                    "argumentTypes": null,
                    "arguments": [
                      {
                        "argumentTypes": null,
                        "id": 2336,
                        "name": "_paused",
                        "nodeType": "Identifier",
                        "overloadedDeclarations": [],
                        "referencedDeclaration": 2308,
                        "src": "860:7:11",
                        "typeDescriptions": {
                          "typeIdentifier": "t_bool",
                          "typeString": "bool"
                        }
                      }
                    ],
                    "expression": {
                      "argumentTypes": [
                        {
                          "typeIdentifier": "t_bool",
                          "typeString": "bool"
                        }
                      ],
                      "id": 2335,
                      "name": "require",
                      "nodeType": "Identifier",
                      "overloadedDeclarations": [
                        3317,
                        3318
                      ],
                      "referencedDeclaration": 3317,
                      "src": "852:7:11",
                      "typeDescriptions": {
                        "typeIdentifier": "t_function_require_pure$_t_bool_$returns$__$",
                        "typeString": "function (bool) pure"
                      }
                    },
                    "id": 2337,
                    "isConstant": false,
                    "isLValue": false,
                    "isPure": false,
                    "kind": "functionCall",
                    "lValueRequested": false,
                    "names": [],
                    "nodeType": "FunctionCall",
                    "src": "852:16:11",
                    "typeDescriptions": {
                      "typeIdentifier": "t_tuple$__$",
                      "typeString": "tuple()"
                    }
                  },
                  "id": 2338,
                  "nodeType": "ExpressionStatement",
                  "src": "852:16:11"
                },
                {
                  "id": 2339,
                  "nodeType": "PlaceholderStatement",
                  "src": "878:1:11"
                }
              ]
            },
            "documentation": "@dev Modifier to make a function callable only when the contract is paused.",
            "id": 2341,
            "name": "whenPaused",
            "nodeType": "ModifierDefinition",
            "parameters": {
              "id": 2334,
              "nodeType": "ParameterList",
              "parameters": [],
              "src": "839:2:11"
            },
            "src": "820:66:11",
            "visibility": "internal"
          },
          {
            "body": {
              "id": 2357,
              "nodeType": "Block",
              "src": "1022:64:11",
              "statements": [
                {
                  "expression": {
                    "argumentTypes": null,
                    "id": 2350,
                    "isConstant": false,
                    "isLValue": false,
                    "isPure": false,
                    "lValueRequested": false,
                    "leftHandSide": {
                      "argumentTypes": null,
                      "id": 2348,
                      "name": "_paused",
                      "nodeType": "Identifier",
                      "overloadedDeclarations": [],
                      "referencedDeclaration": 2308,
                      "src": "1032:7:11",
                      "typeDescriptions": {
                        "typeIdentifier": "t_bool",
                        "typeString": "bool"
                      }
                    },
                    "nodeType": "Assignment",
                    "operator": "=",
                    "rightHandSide": {
                      "argumentTypes": null,
                      "hexValue": "74727565",
                      "id": 2349,
                      "isConstant": false,
                      "isLValue": false,
                      "isPure": true,
                      "kind": "bool",
                      "lValueRequested": false,
                      "nodeType": "Literal",
                      "src": "1042:4:11",
                      "subdenomination": null,
                      "typeDescriptions": {
                        "typeIdentifier": "t_bool",
                        "typeString": "bool"
                      },
                      "value": "true"
                    },
                    "src": "1032:14:11",
                    "typeDescriptions": {
                      "typeIdentifier": "t_bool",
                      "typeString": "bool"
                    }
                  },
                  "id": 2351,
                  "nodeType": "ExpressionStatement",
                  "src": "1032:14:11"
                },
                {
                  "eventCall": {
                    "argumentTypes": null,
                    "arguments": [
                      {
                        "argumentTypes": null,
                        "expression": {
                          "argumentTypes": null,
                          "id": 2353,
                          "name": "msg",
                          "nodeType": "Identifier",
                          "overloadedDeclarations": [],
                          "referencedDeclaration": 3314,
                          "src": "1068:3:11",
                          "typeDescriptions": {
                            "typeIdentifier": "t_magic_message",
                            "typeString": "msg"
                          }
                        },
                        "id": 2354,
                        "isConstant": false,
                        "isLValue": false,
                        "isPure": false,
                        "lValueRequested": false,
                        "memberName": "sender",
                        "nodeType": "MemberAccess",
                        "referencedDeclaration": null,
                        "src": "1068:10:11",
                        "typeDescriptions": {
                          "typeIdentifier": "t_address_payable",
                          "typeString": "address payable"
                        }
                      }
                    ],
                    "expression": {
                      "argumentTypes": [
                        {
                          "typeIdentifier": "t_address_payable",
                          "typeString": "address payable"
                        }
                      ],
                      "id": 2352,
                      "name": "Paused",
                      "nodeType": "Identifier",
                      "overloadedDeclarations": [],
                      "referencedDeclaration": 2302,
                      "src": "1061:6:11",
                      "typeDescriptions": {
                        "typeIdentifier": "t_function_event_nonpayable$_t_address_$returns$__$",
                        "typeString": "function (address)"
                      }
                    },
                    "id": 2355,
                    "isConstant": false,
                    "isLValue": false,
                    "isPure": false,
                    "kind": "functionCall",
                    "lValueRequested": false,
                    "names": [],
                    "nodeType": "FunctionCall",
                    "src": "1061:18:11",
                    "typeDescriptions": {
                      "typeIdentifier": "t_tuple$__$",
                      "typeString": "tuple()"
                    }
                  },
                  "id": 2356,
                  "nodeType": "EmitStatement",
                  "src": "1056:23:11"
                }
              ]
            },
            "documentation": "@dev called by the owner to pause, triggers stopped state",
            "id": 2358,
            "implemented": true,
            "kind": "function",
            "modifiers": [
              {
                "arguments": null,
                "id": 2344,
                "modifierName": {
                  "argumentTypes": null,
                  "id": 2343,
                  "name": "onlyPauser",
                  "nodeType": "Identifier",
                  "overloadedDeclarations": [],
                  "referencedDeclaration": 2014,
                  "src": "997:10:11",
                  "typeDescriptions": {
                    "typeIdentifier": "t_modifier$__$",
                    "typeString": "modifier ()"
                  }
                },
                "nodeType": "ModifierInvocation",
                "src": "997:10:11"
              },
              {
                "arguments": null,
                "id": 2346,
                "modifierName": {
                  "argumentTypes": null,
                  "id": 2345,
                  "name": "whenNotPaused",
                  "nodeType": "Identifier",
                  "overloadedDeclarations": [],
                  "referencedDeclaration": 2333,
                  "src": "1008:13:11",
                  "typeDescriptions": {
                    "typeIdentifier": "t_modifier$__$",
                    "typeString": "modifier ()"
                  }
                },
                "nodeType": "ModifierInvocation",
                "src": "1008:13:11"
              }
            ],
            "name": "pause",
            "nodeType": "FunctionDefinition",
            "parameters": {
              "id": 2342,
              "nodeType": "ParameterList",
              "parameters": [],
              "src": "987:2:11"
            },
            "returnParameters": {
              "id": 2347,
              "nodeType": "ParameterList",
              "parameters": [],
              "src": "1022:0:11"
            },
            "scope": 2376,
            "src": "973:113:11",
            "stateMutability": "nonpayable",
            "superFunction": null,
            "visibility": "public"
          },
          {
            "body": {
              "id": 2374,
              "nodeType": "Block",
              "src": "1224:67:11",
              "statements": [
                {
                  "expression": {
                    "argumentTypes": null,
                    "id": 2367,
                    "isConstant": false,
                    "isLValue": false,
                    "isPure": false,
                    "lValueRequested": false,
                    "leftHandSide": {
                      "argumentTypes": null,
                      "id": 2365,
                      "name": "_paused",
                      "nodeType": "Identifier",
                      "overloadedDeclarations": [],
                      "referencedDeclaration": 2308,
                      "src": "1234:7:11",
                      "typeDescriptions": {
                        "typeIdentifier": "t_bool",
                        "typeString": "bool"
                      }
                    },
                    "nodeType": "Assignment",
                    "operator": "=",
                    "rightHandSide": {
                      "argumentTypes": null,
                      "hexValue": "66616c7365",
                      "id": 2366,
                      "isConstant": false,
                      "isLValue": false,
                      "isPure": true,
                      "kind": "bool",
                      "lValueRequested": false,
                      "nodeType": "Literal",
                      "src": "1244:5:11",
                      "subdenomination": null,
                      "typeDescriptions": {
                        "typeIdentifier": "t_bool",
                        "typeString": "bool"
                      },
                      "value": "false"
                    },
                    "src": "1234:15:11",
                    "typeDescriptions": {
                      "typeIdentifier": "t_bool",
                      "typeString": "bool"
                    }
                  },
                  "id": 2368,
                  "nodeType": "ExpressionStatement",
                  "src": "1234:15:11"
                },
                {
                  "eventCall": {
                    "argumentTypes": null,
                    "arguments": [
                      {
                        "argumentTypes": null,
                        "expression": {
                          "argumentTypes": null,
                          "id": 2370,
                          "name": "msg",
                          "nodeType": "Identifier",
                          "overloadedDeclarations": [],
                          "referencedDeclaration": 3314,
                          "src": "1273:3:11",
                          "typeDescriptions": {
                            "typeIdentifier": "t_magic_message",
                            "typeString": "msg"
                          }
                        },
                        "id": 2371,
                        "isConstant": false,
                        "isLValue": false,
                        "isPure": false,
                        "lValueRequested": false,
                        "memberName": "sender",
                        "nodeType": "MemberAccess",
                        "referencedDeclaration": null,
                        "src": "1273:10:11",
                        "typeDescriptions": {
                          "typeIdentifier": "t_address_payable",
                          "typeString": "address payable"
                        }
                      }
                    ],
                    "expression": {
                      "argumentTypes": [
                        {
                          "typeIdentifier": "t_address_payable",
                          "typeString": "address payable"
                        }
                      ],
                      "id": 2369,
                      "name": "Unpaused",
                      "nodeType": "Identifier",
                      "overloadedDeclarations": [],
                      "referencedDeclaration": 2306,
                      "src": "1264:8:11",
                      "typeDescriptions": {
                        "typeIdentifier": "t_function_event_nonpayable$_t_address_$returns$__$",
                        "typeString": "function (address)"
                      }
                    },
                    "id": 2372,
                    "isConstant": false,
                    "isLValue": false,
                    "isPure": false,
                    "kind": "functionCall",
                    "lValueRequested": false,
                    "names": [],
                    "nodeType": "FunctionCall",
                    "src": "1264:20:11",
                    "typeDescriptions": {
                      "typeIdentifier": "t_tuple$__$",
                      "typeString": "tuple()"
                    }
                  },
                  "id": 2373,
                  "nodeType": "EmitStatement",
                  "src": "1259:25:11"
                }
              ]
            },
            "documentation": "@dev called by the owner to unpause, returns to normal state",
            "id": 2375,
            "implemented": true,
            "kind": "function",
            "modifiers": [
              {
                "arguments": null,
                "id": 2361,
                "modifierName": {
                  "argumentTypes": null,
                  "id": 2360,
                  "name": "onlyPauser",
                  "nodeType": "Identifier",
                  "overloadedDeclarations": [],
                  "referencedDeclaration": 2014,
                  "src": "1202:10:11",
                  "typeDescriptions": {
                    "typeIdentifier": "t_modifier$__$",
                    "typeString": "modifier ()"
                  }
                },
                "nodeType": "ModifierInvocation",
                "src": "1202:10:11"
              },
              {
                "arguments": null,
                "id": 2363,
                "modifierName": {
                  "argumentTypes": null,
                  "id": 2362,
                  "name": "whenPaused",
                  "nodeType": "Identifier",
                  "overloadedDeclarations": [],
                  "referencedDeclaration": 2341,
                  "src": "1213:10:11",
                  "typeDescriptions": {
                    "typeIdentifier": "t_modifier$__$",
                    "typeString": "modifier ()"
                  }
                },
                "nodeType": "ModifierInvocation",
                "src": "1213:10:11"
              }
            ],
            "name": "unpause",
            "nodeType": "FunctionDefinition",
            "parameters": {
              "id": 2359,
              "nodeType": "ParameterList",
              "parameters": [],
              "src": "1192:2:11"
            },
            "returnParameters": {
              "id": 2364,
              "nodeType": "ParameterList",
              "parameters": [],
              "src": "1224:0:11"
            },
            "scope": 2376,
            "src": "1176:115:11",
            "stateMutability": "nonpayable",
            "superFunction": null,
            "visibility": "public"
          }
        ],
        "scope": 2377,
        "src": "180:1113:11"
      }
    ],
    "src": "0:1294:11"
  },
  "legacyAST": {
    "absolutePath": "openzeppelin-solidity/contracts/lifecycle/Pausable.sol",
    "exportedSymbols": {
      "Pausable": [
        2376
      ]
    },
    "id": 2377,
    "nodeType": "SourceUnit",
    "nodes": [
      {
        "id": 2295,
        "literals": [
          "solidity",
          "^",
          "0.5",
          ".2"
        ],
        "nodeType": "PragmaDirective",
        "src": "0:23:11"
      },
      {
        "absolutePath": "openzeppelin-solidity/contracts/access/roles/PauserRole.sol",
        "file": "../access/roles/PauserRole.sol",
        "id": 2296,
        "nodeType": "ImportDirective",
        "scope": 2377,
        "sourceUnit": 2082,
        "src": "25:40:11",
        "symbolAliases": [],
        "unitAlias": ""
      },
      {
        "baseContracts": [
          {
            "arguments": null,
            "baseName": {
              "contractScope": null,
              "id": 2297,
              "name": "PauserRole",
              "nodeType": "UserDefinedTypeName",
              "referencedDeclaration": 2081,
              "src": "201:10:11",
              "typeDescriptions": {
                "typeIdentifier": "t_contract$_PauserRole_$2081",
                "typeString": "contract PauserRole"
              }
            },
            "id": 2298,
            "nodeType": "InheritanceSpecifier",
            "src": "201:10:11"
          }
        ],
        "contractDependencies": [
          2081
        ],
        "contractKind": "contract",
        "documentation": "@title Pausable\n@dev Base contract which allows children to implement an emergency stop mechanism.",
        "fullyImplemented": true,
        "id": 2376,
        "linearizedBaseContracts": [
          2376,
          2081
        ],
        "name": "Pausable",
        "nodeType": "ContractDefinition",
        "nodes": [
          {
            "anonymous": false,
            "documentation": null,
            "id": 2302,
            "name": "Paused",
            "nodeType": "EventDefinition",
            "parameters": {
              "id": 2301,
              "nodeType": "ParameterList",
              "parameters": [
                {
                  "constant": false,
                  "id": 2300,
                  "indexed": false,
                  "name": "account",
                  "nodeType": "VariableDeclaration",
                  "scope": 2302,
                  "src": "231:15:11",
                  "stateVariable": false,
                  "storageLocation": "default",
                  "typeDescriptions": {
                    "typeIdentifier": "t_address",
                    "typeString": "address"
                  },
                  "typeName": {
                    "id": 2299,
                    "name": "address",
                    "nodeType": "ElementaryTypeName",
                    "src": "231:7:11",
                    "stateMutability": "nonpayable",
                    "typeDescriptions": {
                      "typeIdentifier": "t_address",
                      "typeString": "address"
                    }
                  },
                  "value": null,
                  "visibility": "internal"
                }
              ],
              "src": "230:17:11"
            },
            "src": "218:30:11"
          },
          {
            "anonymous": false,
            "documentation": null,
            "id": 2306,
            "name": "Unpaused",
            "nodeType": "EventDefinition",
            "parameters": {
              "id": 2305,
              "nodeType": "ParameterList",
              "parameters": [
                {
                  "constant": false,
                  "id": 2304,
                  "indexed": false,
                  "name": "account",
                  "nodeType": "VariableDeclaration",
                  "scope": 2306,
                  "src": "268:15:11",
                  "stateVariable": false,
                  "storageLocation": "default",
                  "typeDescriptions": {
                    "typeIdentifier": "t_address",
                    "typeString": "address"
                  },
                  "typeName": {
                    "id": 2303,
                    "name": "address",
                    "nodeType": "ElementaryTypeName",
                    "src": "268:7:11",
                    "stateMutability": "nonpayable",
                    "typeDescriptions": {
                      "typeIdentifier": "t_address",
                      "typeString": "address"
                    }
                  },
                  "value": null,
                  "visibility": "internal"
                }
              ],
              "src": "267:17:11"
            },
            "src": "253:32:11"
          },
          {
            "constant": false,
            "id": 2308,
            "name": "_paused",
            "nodeType": "VariableDeclaration",
            "scope": 2376,
            "src": "291:20:11",
            "stateVariable": true,
            "storageLocation": "default",
            "typeDescriptions": {
              "typeIdentifier": "t_bool",
              "typeString": "bool"
            },
            "typeName": {
              "id": 2307,
              "name": "bool",
              "nodeType": "ElementaryTypeName",
              "src": "291:4:11",
              "typeDescriptions": {
                "typeIdentifier": "t_bool",
                "typeString": "bool"
              }
            },
            "value": null,
            "visibility": "private"
          },
          {
            "body": {
              "id": 2315,
              "nodeType": "Block",
              "src": "342:32:11",
              "statements": [
                {
                  "expression": {
                    "argumentTypes": null,
                    "id": 2313,
                    "isConstant": false,
                    "isLValue": false,
                    "isPure": false,
                    "lValueRequested": false,
                    "leftHandSide": {
                      "argumentTypes": null,
                      "id": 2311,
                      "name": "_paused",
                      "nodeType": "Identifier",
                      "overloadedDeclarations": [],
                      "referencedDeclaration": 2308,
                      "src": "352:7:11",
                      "typeDescriptions": {
                        "typeIdentifier": "t_bool",
                        "typeString": "bool"
                      }
                    },
                    "nodeType": "Assignment",
                    "operator": "=",
                    "rightHandSide": {
                      "argumentTypes": null,
                      "hexValue": "66616c7365",
                      "id": 2312,
                      "isConstant": false,
                      "isLValue": false,
                      "isPure": true,
                      "kind": "bool",
                      "lValueRequested": false,
                      "nodeType": "Literal",
                      "src": "362:5:11",
                      "subdenomination": null,
                      "typeDescriptions": {
                        "typeIdentifier": "t_bool",
                        "typeString": "bool"
                      },
                      "value": "false"
                    },
                    "src": "352:15:11",
                    "typeDescriptions": {
                      "typeIdentifier": "t_bool",
                      "typeString": "bool"
                    }
                  },
                  "id": 2314,
                  "nodeType": "ExpressionStatement",
                  "src": "352:15:11"
                }
              ]
            },
            "documentation": null,
            "id": 2316,
            "implemented": true,
            "kind": "constructor",
            "modifiers": [],
            "name": "",
            "nodeType": "FunctionDefinition",
            "parameters": {
              "id": 2309,
              "nodeType": "ParameterList",
              "parameters": [],
              "src": "330:2:11"
            },
            "returnParameters": {
              "id": 2310,
              "nodeType": "ParameterList",
              "parameters": [],
              "src": "342:0:11"
            },
            "scope": 2376,
            "src": "318:56:11",
            "stateMutability": "nonpayable",
            "superFunction": null,
            "visibility": "internal"
          },
          {
            "body": {
              "id": 2323,
              "nodeType": "Block",
              "src": "505:31:11",
              "statements": [
                {
                  "expression": {
                    "argumentTypes": null,
                    "id": 2321,
                    "name": "_paused",
                    "nodeType": "Identifier",
                    "overloadedDeclarations": [],
                    "referencedDeclaration": 2308,
                    "src": "522:7:11",
                    "typeDescriptions": {
                      "typeIdentifier": "t_bool",
                      "typeString": "bool"
                    }
                  },
                  "functionReturnParameters": 2320,
                  "id": 2322,
                  "nodeType": "Return",
                  "src": "515:14:11"
                }
              ]
            },
            "documentation": "@return true if the contract is paused, false otherwise.",
            "id": 2324,
            "implemented": true,
            "kind": "function",
            "modifiers": [],
            "name": "paused",
            "nodeType": "FunctionDefinition",
            "parameters": {
              "id": 2317,
              "nodeType": "ParameterList",
              "parameters": [],
              "src": "475:2:11"
            },
            "returnParameters": {
              "id": 2320,
              "nodeType": "ParameterList",
              "parameters": [
                {
                  "constant": false,
                  "id": 2319,
                  "name": "",
                  "nodeType": "VariableDeclaration",
                  "scope": 2324,
                  "src": "499:4:11",
                  "stateVariable": false,
                  "storageLocation": "default",
                  "typeDescriptions": {
                    "typeIdentifier": "t_bool",
                    "typeString": "bool"
                  },
                  "typeName": {
                    "id": 2318,
                    "name": "bool",
                    "nodeType": "ElementaryTypeName",
                    "src": "499:4:11",
                    "typeDescriptions": {
                      "typeIdentifier": "t_bool",
                      "typeString": "bool"
                    }
                  },
                  "value": null,
                  "visibility": "internal"
                }
              ],
              "src": "498:6:11"
            },
            "scope": 2376,
            "src": "460:76:11",
            "stateMutability": "view",
            "superFunction": null,
            "visibility": "public"
          },
          {
            "body": {
              "id": 2332,
              "nodeType": "Block",
              "src": "670:45:11",
              "statements": [
                {
                  "expression": {
                    "argumentTypes": null,
                    "arguments": [
                      {
                        "argumentTypes": null,
                        "id": 2328,
                        "isConstant": false,
                        "isLValue": false,
                        "isPure": false,
                        "lValueRequested": false,
                        "nodeType": "UnaryOperation",
                        "operator": "!",
                        "prefix": true,
                        "src": "688:8:11",
                        "subExpression": {
                          "argumentTypes": null,
                          "id": 2327,
                          "name": "_paused",
                          "nodeType": "Identifier",
                          "overloadedDeclarations": [],
                          "referencedDeclaration": 2308,
                          "src": "689:7:11",
                          "typeDescriptions": {
                            "typeIdentifier": "t_bool",
                            "typeString": "bool"
                          }
                        },
                        "typeDescriptions": {
                          "typeIdentifier": "t_bool",
                          "typeString": "bool"
                        }
                      }
                    ],
                    "expression": {
                      "argumentTypes": [
                        {
                          "typeIdentifier": "t_bool",
                          "typeString": "bool"
                        }
                      ],
                      "id": 2326,
                      "name": "require",
                      "nodeType": "Identifier",
                      "overloadedDeclarations": [
                        3317,
                        3318
                      ],
                      "referencedDeclaration": 3317,
                      "src": "680:7:11",
                      "typeDescriptions": {
                        "typeIdentifier": "t_function_require_pure$_t_bool_$returns$__$",
                        "typeString": "function (bool) pure"
                      }
                    },
                    "id": 2329,
                    "isConstant": false,
                    "isLValue": false,
                    "isPure": false,
                    "kind": "functionCall",
                    "lValueRequested": false,
                    "names": [],
                    "nodeType": "FunctionCall",
                    "src": "680:17:11",
                    "typeDescriptions": {
                      "typeIdentifier": "t_tuple$__$",
                      "typeString": "tuple()"
                    }
                  },
                  "id": 2330,
                  "nodeType": "ExpressionStatement",
                  "src": "680:17:11"
                },
                {
                  "id": 2331,
                  "nodeType": "PlaceholderStatement",
                  "src": "707:1:11"
                }
              ]
            },
            "documentation": "@dev Modifier to make a function callable only when the contract is not paused.",
            "id": 2333,
            "name": "whenNotPaused",
            "nodeType": "ModifierDefinition",
            "parameters": {
              "id": 2325,
              "nodeType": "ParameterList",
              "parameters": [],
              "src": "667:2:11"
            },
            "src": "645:70:11",
            "visibility": "internal"
          },
          {
            "body": {
              "id": 2340,
              "nodeType": "Block",
              "src": "842:44:11",
              "statements": [
                {
                  "expression": {
                    "argumentTypes": null,
                    "arguments": [
                      {
                        "argumentTypes": null,
                        "id": 2336,
                        "name": "_paused",
                        "nodeType": "Identifier",
                        "overloadedDeclarations": [],
                        "referencedDeclaration": 2308,
                        "src": "860:7:11",
                        "typeDescriptions": {
                          "typeIdentifier": "t_bool",
                          "typeString": "bool"
                        }
                      }
                    ],
                    "expression": {
                      "argumentTypes": [
                        {
                          "typeIdentifier": "t_bool",
                          "typeString": "bool"
                        }
                      ],
                      "id": 2335,
                      "name": "require",
                      "nodeType": "Identifier",
                      "overloadedDeclarations": [
                        3317,
                        3318
                      ],
                      "referencedDeclaration": 3317,
                      "src": "852:7:11",
                      "typeDescriptions": {
                        "typeIdentifier": "t_function_require_pure$_t_bool_$returns$__$",
                        "typeString": "function (bool) pure"
                      }
                    },
                    "id": 2337,
                    "isConstant": false,
                    "isLValue": false,
                    "isPure": false,
                    "kind": "functionCall",
                    "lValueRequested": false,
                    "names": [],
                    "nodeType": "FunctionCall",
                    "src": "852:16:11",
                    "typeDescriptions": {
                      "typeIdentifier": "t_tuple$__$",
                      "typeString": "tuple()"
                    }
                  },
                  "id": 2338,
                  "nodeType": "ExpressionStatement",
                  "src": "852:16:11"
                },
                {
                  "id": 2339,
                  "nodeType": "PlaceholderStatement",
                  "src": "878:1:11"
                }
              ]
            },
            "documentation": "@dev Modifier to make a function callable only when the contract is paused.",
            "id": 2341,
            "name": "whenPaused",
            "nodeType": "ModifierDefinition",
            "parameters": {
              "id": 2334,
              "nodeType": "ParameterList",
              "parameters": [],
              "src": "839:2:11"
            },
            "src": "820:66:11",
            "visibility": "internal"
          },
          {
            "body": {
              "id": 2357,
              "nodeType": "Block",
              "src": "1022:64:11",
              "statements": [
                {
                  "expression": {
                    "argumentTypes": null,
                    "id": 2350,
                    "isConstant": false,
                    "isLValue": false,
                    "isPure": false,
                    "lValueRequested": false,
                    "leftHandSide": {
                      "argumentTypes": null,
                      "id": 2348,
                      "name": "_paused",
                      "nodeType": "Identifier",
                      "overloadedDeclarations": [],
                      "referencedDeclaration": 2308,
                      "src": "1032:7:11",
                      "typeDescriptions": {
                        "typeIdentifier": "t_bool",
                        "typeString": "bool"
                      }
                    },
                    "nodeType": "Assignment",
                    "operator": "=",
                    "rightHandSide": {
                      "argumentTypes": null,
                      "hexValue": "74727565",
                      "id": 2349,
                      "isConstant": false,
                      "isLValue": false,
                      "isPure": true,
                      "kind": "bool",
                      "lValueRequested": false,
                      "nodeType": "Literal",
                      "src": "1042:4:11",
                      "subdenomination": null,
                      "typeDescriptions": {
                        "typeIdentifier": "t_bool",
                        "typeString": "bool"
                      },
                      "value": "true"
                    },
                    "src": "1032:14:11",
                    "typeDescriptions": {
                      "typeIdentifier": "t_bool",
                      "typeString": "bool"
                    }
                  },
                  "id": 2351,
                  "nodeType": "ExpressionStatement",
                  "src": "1032:14:11"
                },
                {
                  "eventCall": {
                    "argumentTypes": null,
                    "arguments": [
                      {
                        "argumentTypes": null,
                        "expression": {
                          "argumentTypes": null,
                          "id": 2353,
                          "name": "msg",
                          "nodeType": "Identifier",
                          "overloadedDeclarations": [],
                          "referencedDeclaration": 3314,
                          "src": "1068:3:11",
                          "typeDescriptions": {
                            "typeIdentifier": "t_magic_message",
                            "typeString": "msg"
                          }
                        },
                        "id": 2354,
                        "isConstant": false,
                        "isLValue": false,
                        "isPure": false,
                        "lValueRequested": false,
                        "memberName": "sender",
                        "nodeType": "MemberAccess",
                        "referencedDeclaration": null,
                        "src": "1068:10:11",
                        "typeDescriptions": {
                          "typeIdentifier": "t_address_payable",
                          "typeString": "address payable"
                        }
                      }
                    ],
                    "expression": {
                      "argumentTypes": [
                        {
                          "typeIdentifier": "t_address_payable",
                          "typeString": "address payable"
                        }
                      ],
                      "id": 2352,
                      "name": "Paused",
                      "nodeType": "Identifier",
                      "overloadedDeclarations": [],
                      "referencedDeclaration": 2302,
                      "src": "1061:6:11",
                      "typeDescriptions": {
                        "typeIdentifier": "t_function_event_nonpayable$_t_address_$returns$__$",
                        "typeString": "function (address)"
                      }
                    },
                    "id": 2355,
                    "isConstant": false,
                    "isLValue": false,
                    "isPure": false,
                    "kind": "functionCall",
                    "lValueRequested": false,
                    "names": [],
                    "nodeType": "FunctionCall",
                    "src": "1061:18:11",
                    "typeDescriptions": {
                      "typeIdentifier": "t_tuple$__$",
                      "typeString": "tuple()"
                    }
                  },
                  "id": 2356,
                  "nodeType": "EmitStatement",
                  "src": "1056:23:11"
                }
              ]
            },
            "documentation": "@dev called by the owner to pause, triggers stopped state",
            "id": 2358,
            "implemented": true,
            "kind": "function",
            "modifiers": [
              {
                "arguments": null,
                "id": 2344,
                "modifierName": {
                  "argumentTypes": null,
                  "id": 2343,
                  "name": "onlyPauser",
                  "nodeType": "Identifier",
                  "overloadedDeclarations": [],
                  "referencedDeclaration": 2014,
                  "src": "997:10:11",
                  "typeDescriptions": {
                    "typeIdentifier": "t_modifier$__$",
                    "typeString": "modifier ()"
                  }
                },
                "nodeType": "ModifierInvocation",
                "src": "997:10:11"
              },
              {
                "arguments": null,
                "id": 2346,
                "modifierName": {
                  "argumentTypes": null,
                  "id": 2345,
                  "name": "whenNotPaused",
                  "nodeType": "Identifier",
                  "overloadedDeclarations": [],
                  "referencedDeclaration": 2333,
                  "src": "1008:13:11",
                  "typeDescriptions": {
                    "typeIdentifier": "t_modifier$__$",
                    "typeString": "modifier ()"
                  }
                },
                "nodeType": "ModifierInvocation",
                "src": "1008:13:11"
              }
            ],
            "name": "pause",
            "nodeType": "FunctionDefinition",
            "parameters": {
              "id": 2342,
              "nodeType": "ParameterList",
              "parameters": [],
              "src": "987:2:11"
            },
            "returnParameters": {
              "id": 2347,
              "nodeType": "ParameterList",
              "parameters": [],
              "src": "1022:0:11"
            },
            "scope": 2376,
            "src": "973:113:11",
            "stateMutability": "nonpayable",
            "superFunction": null,
            "visibility": "public"
          },
          {
            "body": {
              "id": 2374,
              "nodeType": "Block",
              "src": "1224:67:11",
              "statements": [
                {
                  "expression": {
                    "argumentTypes": null,
                    "id": 2367,
                    "isConstant": false,
                    "isLValue": false,
                    "isPure": false,
                    "lValueRequested": false,
                    "leftHandSide": {
                      "argumentTypes": null,
                      "id": 2365,
                      "name": "_paused",
                      "nodeType": "Identifier",
                      "overloadedDeclarations": [],
                      "referencedDeclaration": 2308,
                      "src": "1234:7:11",
                      "typeDescriptions": {
                        "typeIdentifier": "t_bool",
                        "typeString": "bool"
                      }
                    },
                    "nodeType": "Assignment",
                    "operator": "=",
                    "rightHandSide": {
                      "argumentTypes": null,
                      "hexValue": "66616c7365",
                      "id": 2366,
                      "isConstant": false,
                      "isLValue": false,
                      "isPure": true,
                      "kind": "bool",
                      "lValueRequested": false,
                      "nodeType": "Literal",
                      "src": "1244:5:11",
                      "subdenomination": null,
                      "typeDescriptions": {
                        "typeIdentifier": "t_bool",
                        "typeString": "bool"
                      },
                      "value": "false"
                    },
                    "src": "1234:15:11",
                    "typeDescriptions": {
                      "typeIdentifier": "t_bool",
                      "typeString": "bool"
                    }
                  },
                  "id": 2368,
                  "nodeType": "ExpressionStatement",
                  "src": "1234:15:11"
                },
                {
                  "eventCall": {
                    "argumentTypes": null,
                    "arguments": [
                      {
                        "argumentTypes": null,
                        "expression": {
                          "argumentTypes": null,
                          "id": 2370,
                          "name": "msg",
                          "nodeType": "Identifier",
                          "overloadedDeclarations": [],
                          "referencedDeclaration": 3314,
                          "src": "1273:3:11",
                          "typeDescriptions": {
                            "typeIdentifier": "t_magic_message",
                            "typeString": "msg"
                          }
                        },
                        "id": 2371,
                        "isConstant": false,
                        "isLValue": false,
                        "isPure": false,
                        "lValueRequested": false,
                        "memberName": "sender",
                        "nodeType": "MemberAccess",
                        "referencedDeclaration": null,
                        "src": "1273:10:11",
                        "typeDescriptions": {
                          "typeIdentifier": "t_address_payable",
                          "typeString": "address payable"
                        }
                      }
                    ],
                    "expression": {
                      "argumentTypes": [
                        {
                          "typeIdentifier": "t_address_payable",
                          "typeString": "address payable"
                        }
                      ],
                      "id": 2369,
                      "name": "Unpaused",
                      "nodeType": "Identifier",
                      "overloadedDeclarations": [],
                      "referencedDeclaration": 2306,
                      "src": "1264:8:11",
                      "typeDescriptions": {
                        "typeIdentifier": "t_function_event_nonpayable$_t_address_$returns$__$",
                        "typeString": "function (address)"
                      }
                    },
                    "id": 2372,
                    "isConstant": false,
                    "isLValue": false,
                    "isPure": false,
                    "kind": "functionCall",
                    "lValueRequested": false,
                    "names": [],
                    "nodeType": "FunctionCall",
                    "src": "1264:20:11",
                    "typeDescriptions": {
                      "typeIdentifier": "t_tuple$__$",
                      "typeString": "tuple()"
                    }
                  },
                  "id": 2373,
                  "nodeType": "EmitStatement",
                  "src": "1259:25:11"
                }
              ]
            },
            "documentation": "@dev called by the owner to unpause, returns to normal state",
            "id": 2375,
            "implemented": true,
            "kind": "function",
            "modifiers": [
              {
                "arguments": null,
                "id": 2361,
                "modifierName": {
                  "argumentTypes": null,
                  "id": 2360,
                  "name": "onlyPauser",
                  "nodeType": "Identifier",
                  "overloadedDeclarations": [],
                  "referencedDeclaration": 2014,
                  "src": "1202:10:11",
                  "typeDescriptions": {
                    "typeIdentifier": "t_modifier$__$",
                    "typeString": "modifier ()"
                  }
                },
                "nodeType": "ModifierInvocation",
                "src": "1202:10:11"
              },
              {
                "arguments": null,
                "id": 2363,
                "modifierName": {
                  "argumentTypes": null,
                  "id": 2362,
                  "name": "whenPaused",
                  "nodeType": "Identifier",
                  "overloadedDeclarations": [],
                  "referencedDeclaration": 2341,
                  "src": "1213:10:11",
                  "typeDescriptions": {
                    "typeIdentifier": "t_modifier$__$",
                    "typeString": "modifier ()"
                  }
                },
                "nodeType": "ModifierInvocation",
                "src": "1213:10:11"
              }
            ],
            "name": "unpause",
            "nodeType": "FunctionDefinition",
            "parameters": {
              "id": 2359,
              "nodeType": "ParameterList",
              "parameters": [],
              "src": "1192:2:11"
            },
            "returnParameters": {
              "id": 2364,
              "nodeType": "ParameterList",
              "parameters": [],
              "src": "1224:0:11"
            },
            "scope": 2376,
            "src": "1176:115:11",
            "stateMutability": "nonpayable",
            "superFunction": null,
            "visibility": "public"
          }
        ],
        "scope": 2377,
        "src": "180:1113:11"
      }
    ],
    "src": "0:1294:11"
  },
  "compiler": {
    "name": "solc",
    "version": "0.5.8+commit.23d335f2.Emscripten.clang"
  },
  "networks": {},
  "schemaVersion": "3.0.11",
  "updatedAt": "2019-07-29T11:07:54.932Z",
  "devdoc": {
    "details": "Base contract which allows children to implement an emergency stop mechanism.",
    "methods": {
      "pause()": {
        "details": "called by the owner to pause, triggers stopped state"
      },
      "paused()": {
        "return": "true if the contract is paused, false otherwise."
      },
      "unpause()": {
        "details": "called by the owner to unpause, returns to normal state"
      }
    },
    "title": "Pausable"
  },
  "userdoc": {
    "methods": {}
  }
}