{
  "contractName": "PauserRole",
  "abi": [
    {
      "inputs": [],
      "payable": false,
      "stateMutability": "nonpayable",
      "type": "constructor"
    },
    {
      "anonymous": false,
      "inputs": [
        {
          "indexed": true,
          "name": "account",
          "type": "address"
        }
      ],
      "name": "PauserAdded",
      "type": "event"
    },
    {
      "anonymous": false,
      "inputs": [
        {
          "indexed": true,
          "name": "account",
          "type": "address"
        }
      ],
      "name": "PauserRemoved",
      "type": "event"
    },
    {
      "constant": true,
      "inputs": [
        {
          "name": "account",
          "type": "address"
        }
      ],
      "name": "isPauser",
      "outputs": [
        {
          "name": "",
          "type": "bool"
        }
      ],
      "payable": false,
      "stateMutability": "view",
      "type": "function"
    },
    {
      "constant": false,
      "inputs": [
        {
          "name": "account",
          "type": "address"
        }
      ],
      "name": "addPauser",
      "outputs": [],
      "payable": false,
      "stateMutability": "nonpayable",
      "type": "function"
    },
    {
      "constant": false,
      "inputs": [],
      "name": "renouncePauser",
      "outputs": [],
      "payable": false,
      "stateMutability": "nonpayable",
      "type": "function"
    }
  ],
  "metadata": "{\"compiler\":{\"version\":\"0.5.8+commit.23d335f2\"},\"language\":\"Solidity\",\"output\":{\"abi\":[{\"constant\":true,\"inputs\":[{\"name\":\"account\",\"type\":\"address\"}],\"name\":\"isPauser\",\"outputs\":[{\"name\":\"\",\"type\":\"bool\"}],\"payable\":false,\"stateMutability\":\"view\",\"type\":\"function\"},{\"constant\":false,\"inputs\":[],\"name\":\"renouncePauser\",\"outputs\":[],\"payable\":false,\"stateMutability\":\"nonpayable\",\"type\":\"function\"},{\"constant\":false,\"inputs\":[{\"name\":\"account\",\"type\":\"address\"}],\"name\":\"addPauser\",\"outputs\":[],\"payable\":false,\"stateMutability\":\"nonpayable\",\"type\":\"function\"},{\"inputs\":[],\"payable\":false,\"stateMutability\":\"nonpayable\",\"type\":\"constructor\"},{\"anonymous\":false,\"inputs\":[{\"indexed\":true,\"name\":\"account\",\"type\":\"address\"}],\"name\":\"PauserAdded\",\"type\":\"event\"},{\"anonymous\":false,\"inputs\":[{\"indexed\":true,\"name\":\"account\",\"type\":\"address\"}],\"name\":\"PauserRemoved\",\"type\":\"event\"}],\"devdoc\":{\"methods\":{}},\"userdoc\":{\"methods\":{}}},\"settings\":{\"compilationTarget\":{\"openzeppelin-solidity/contracts/access/roles/PauserRole.sol\":\"PauserRole\"},\"evmVersion\":\"constantinople\",\"libraries\":{},\"optimizer\":{\"enabled\":true,\"runs\":200},\"remappings\":[]},\"sources\":{\"openzeppelin-solidity/contracts/access/Roles.sol\":{\"keccak256\":\"0x75481aaa988c5e9fbc91b4f695678806579c04e0ad56907978c1ca5c7e92a682\",\"urls\":[\"bzzr://da472135eb9268d863825ea26e227a9f8980c54bd32e0764d61711acca59fc89\"]},\"openzeppelin-solidity/contracts/access/roles/PauserRole.sol\":{\"keccak256\":\"0xba59f59cd2062cfc65b931d5fe320a19dad139c346029fdae98df2c3059b7db6\",\"urls\":[\"bzzr://340a41b4f8fbdf86c9de46f1f6a9ab8756ff5535d75a59f824b2241eefae81ce\"]}},\"version\":1}",
  "bytecode": "0x",
  "deployedBytecode": "0x",
  "sourceMap": "",
  "deployedSourceMap": "",
  "source": "pragma solidity ^0.5.2;\n\nimport \"../Roles.sol\";\n\ncontract PauserRole {\n    using Roles for Roles.Role;\n\n    event PauserAdded(address indexed account);\n    event PauserRemoved(address indexed account);\n\n    Roles.Role private _pausers;\n\n    constructor () internal {\n        _addPauser(msg.sender);\n    }\n\n    modifier onlyPauser() {\n        require(isPauser(msg.sender));\n        _;\n    }\n\n    function isPauser(address account) public view returns (bool) {\n        return _pausers.has(account);\n    }\n\n    function addPauser(address account) public onlyPauser {\n        _addPauser(account);\n    }\n\n    function renouncePauser() public {\n        _removePauser(msg.sender);\n    }\n\n    function _addPauser(address account) internal {\n        _pausers.add(account);\n        emit PauserAdded(account);\n    }\n\n    function _removePauser(address account) internal {\n        _pausers.remove(account);\n        emit PauserRemoved(account);\n    }\n}\n",
  "sourcePath": "openzeppelin-solidity/contracts/access/roles/PauserRole.sol",
  "ast": {
    "absolutePath": "openzeppelin-solidity/contracts/access/roles/PauserRole.sol",
    "exportedSymbols": {
      "PauserRole": [
        2081
      ]
    },
    "id": 2082,
    "nodeType": "SourceUnit",
    "nodes": [
      {
        "id": 1980,
        "literals": [
          "solidity",
          "^",
          "0.5",
          ".2"
        ],
        "nodeType": "PragmaDirective",
        "src": "0:23:8"
      },
      {
        "absolutePath": "openzeppelin-solidity/contracts/access/Roles.sol",
        "file": "../Roles.sol",
        "id": 1981,
        "nodeType": "ImportDirective",
        "scope": 2082,
        "sourceUnit": 1979,
        "src": "25:22:8",
        "symbolAliases": [],
        "unitAlias": ""
      },
      {
        "baseContracts": [],
        "contractDependencies": [],
        "contractKind": "contract",
        "documentation": null,
        "fullyImplemented": true,
        "id": 2081,
        "linearizedBaseContracts": [
          2081
        ],
        "name": "PauserRole",
        "nodeType": "ContractDefinition",
        "nodes": [
          {
            "id": 1984,
            "libraryName": {
              "contractScope": null,
              "id": 1982,
              "name": "Roles",
              "nodeType": "UserDefinedTypeName",
              "referencedDeclaration": 1978,
              "src": "81:5:8",
              "typeDescriptions": {
                "typeIdentifier": "t_contract$_Roles_$1978",
                "typeString": "library Roles"
              }
            },
            "nodeType": "UsingForDirective",
            "src": "75:27:8",
            "typeName": {
              "contractScope": null,
              "id": 1983,
              "name": "Roles.Role",
              "nodeType": "UserDefinedTypeName",
              "referencedDeclaration": 1891,
              "src": "91:10:8",
              "typeDescriptions": {
                "typeIdentifier": "t_struct$_Role_$1891_storage_ptr",
                "typeString": "struct Roles.Role"
              }
            }
          },
          {
            "anonymous": false,
            "documentation": null,
            "id": 1988,
            "name": "PauserAdded",
            "nodeType": "EventDefinition",
            "parameters": {
              "id": 1987,
              "nodeType": "ParameterList",
              "parameters": [
                {
                  "constant": false,
                  "id": 1986,
                  "indexed": true,
                  "name": "account",
                  "nodeType": "VariableDeclaration",
                  "scope": 1988,
                  "src": "126:23:8",
                  "stateVariable": false,
                  "storageLocation": "default",
                  "typeDescriptions": {
                    "typeIdentifier": "t_address",
                    "typeString": "address"
                  },
                  "typeName": {
                    "id": 1985,
                    "name": "address",
                    "nodeType": "ElementaryTypeName",
                    "src": "126:7:8",
                    "stateMutability": "nonpayable",
                    "typeDescriptions": {
                      "typeIdentifier": "t_address",
                      "typeString": "address"
                    }
                  },
                  "value": null,
                  "visibility": "internal"
                }
              ],
              "src": "125:25:8"
            },
            "src": "108:43:8"
          },
          {
            "anonymous": false,
            "documentation": null,
            "id": 1992,
            "name": "PauserRemoved",
            "nodeType": "EventDefinition",
            "parameters": {
              "id": 1991,
              "nodeType": "ParameterList",
              "parameters": [
                {
                  "constant": false,
                  "id": 1990,
                  "indexed": true,
                  "name": "account",
                  "nodeType": "VariableDeclaration",
                  "scope": 1992,
                  "src": "176:23:8",
                  "stateVariable": false,
                  "storageLocation": "default",
                  "typeDescriptions": {
                    "typeIdentifier": "t_address",
                    "typeString": "address"
                  },
                  "typeName": {
                    "id": 1989,
                    "name": "address",
                    "nodeType": "ElementaryTypeName",
                    "src": "176:7:8",
                    "stateMutability": "nonpayable",
                    "typeDescriptions": {
                      "typeIdentifier": "t_address",
                      "typeString": "address"
                    }
                  },
                  "value": null,
                  "visibility": "internal"
                }
              ],
              "src": "175:25:8"
            },
            "src": "156:45:8"
          },
          {
            "constant": false,
            "id": 1994,
            "name": "_pausers",
            "nodeType": "VariableDeclaration",
            "scope": 2081,
            "src": "207:27:8",
            "stateVariable": true,
            "storageLocation": "default",
            "typeDescriptions": {
              "typeIdentifier": "t_struct$_Role_$1891_storage",
              "typeString": "struct Roles.Role"
            },
            "typeName": {
              "contractScope": null,
              "id": 1993,
              "name": "Roles.Role",
              "nodeType": "UserDefinedTypeName",
              "referencedDeclaration": 1891,
              "src": "207:10:8",
              "typeDescriptions": {
                "typeIdentifier": "t_struct$_Role_$1891_storage_ptr",
                "typeString": "struct Roles.Role"
              }
            },
            "value": null,
            "visibility": "private"
          },
          {
            "body": {
              "id": 2002,
              "nodeType": "Block",
              "src": "265:39:8",
              "statements": [
                {
                  "expression": {
                    "argumentTypes": null,
                    "arguments": [
                      {
                        "argumentTypes": null,
                        "expression": {
                          "argumentTypes": null,
                          "id": 1998,
                          "name": "msg",
                          "nodeType": "Identifier",
                          "overloadedDeclarations": [],
                          "referencedDeclaration": 3314,
                          "src": "286:3:8",
                          "typeDescriptions": {
                            "typeIdentifier": "t_magic_message",
                            "typeString": "msg"
                          }
                        },
                        "id": 1999,
                        "isConstant": false,
                        "isLValue": false,
                        "isPure": false,
                        "lValueRequested": false,
                        "memberName": "sender",
                        "nodeType": "MemberAccess",
                        "referencedDeclaration": null,
                        "src": "286:10:8",
                        "typeDescriptions": {
                          "typeIdentifier": "t_address_payable",
                          "typeString": "address payable"
                        }
                      }
                    ],
                    "expression": {
                      "argumentTypes": [
                        {
                          "typeIdentifier": "t_address_payable",
                          "typeString": "address payable"
                        }
                      ],
                      "id": 1997,
                      "name": "_addPauser",
                      "nodeType": "Identifier",
                      "overloadedDeclarations": [],
                      "referencedDeclaration": 2064,
                      "src": "275:10:8",
                      "typeDescriptions": {
                        "typeIdentifier": "t_function_internal_nonpayable$_t_address_$returns$__$",
                        "typeString": "function (address)"
                      }
                    },
                    "id": 2000,
                    "isConstant": false,
                    "isLValue": false,
                    "isPure": false,
                    "kind": "functionCall",
                    "lValueRequested": false,
                    "names": [],
                    "nodeType": "FunctionCall",
                    "src": "275:22:8",
                    "typeDescriptions": {
                      "typeIdentifier": "t_tuple$__$",
                      "typeString": "tuple()"
                    }
                  },
                  "id": 2001,
                  "nodeType": "ExpressionStatement",
                  "src": "275:22:8"
                }
              ]
            },
            "documentation": null,
            "id": 2003,
            "implemented": true,
            "kind": "constructor",
            "modifiers": [],
            "name": "",
            "nodeType": "FunctionDefinition",
            "parameters": {
              "id": 1995,
              "nodeType": "ParameterList",
              "parameters": [],
              "src": "253:2:8"
            },
            "returnParameters": {
              "id": 1996,
              "nodeType": "ParameterList",
              "parameters": [],
              "src": "265:0:8"
            },
            "scope": 2081,
            "src": "241:63:8",
            "stateMutability": "nonpayable",
            "superFunction": null,
            "visibility": "internal"
          },
          {
            "body": {
              "id": 2013,
              "nodeType": "Block",
              "src": "332:57:8",
              "statements": [
                {
                  "expression": {
                    "argumentTypes": null,
                    "arguments": [
                      {
                        "argumentTypes": null,
                        "arguments": [
                          {
                            "argumentTypes": null,
                            "expression": {
                              "argumentTypes": null,
                              "id": 2007,
                              "name": "msg",
                              "nodeType": "Identifier",
                              "overloadedDeclarations": [],
                              "referencedDeclaration": 3314,
                              "src": "359:3:8",
                              "typeDescriptions": {
                                "typeIdentifier": "t_magic_message",
                                "typeString": "msg"
                              }
                            },
                            "id": 2008,
                            "isConstant": false,
                            "isLValue": false,
                            "isPure": false,
                            "lValueRequested": false,
                            "memberName": "sender",
                            "nodeType": "MemberAccess",
                            "referencedDeclaration": null,
                            "src": "359:10:8",
                            "typeDescriptions": {
                              "typeIdentifier": "t_address_payable",
                              "typeString": "address payable"
                            }
                          }
                        ],
                        "expression": {
                          "argumentTypes": [
                            {
                              "typeIdentifier": "t_address_payable",
                              "typeString": "address payable"
                            }
                          ],
                          "id": 2006,
                          "name": "isPauser",
                          "nodeType": "Identifier",
                          "overloadedDeclarations": [],
                          "referencedDeclaration": 2027,
                          "src": "350:8:8",
                          "typeDescriptions": {
                            "typeIdentifier": "t_function_internal_view$_t_address_$returns$_t_bool_$",
                            "typeString": "function (address) view returns (bool)"
                          }
                        },
                        "id": 2009,
                        "isConstant": false,
                        "isLValue": false,
                        "isPure": false,
                        "kind": "functionCall",
                        "lValueRequested": false,
                        "names": [],
                        "nodeType": "FunctionCall",
                        "src": "350:20:8",
                        "typeDescriptions": {
                          "typeIdentifier": "t_bool",
                          "typeString": "bool"
                        }
                      }
                    ],
                    "expression": {
                      "argumentTypes": [
                        {
                          "typeIdentifier": "t_bool",
                          "typeString": "bool"
                        }
                      ],
                      "id": 2005,
                      "name": "require",
                      "nodeType": "Identifier",
                      "overloadedDeclarations": [
                        3317,
                        3318
                      ],
                      "referencedDeclaration": 3317,
                      "src": "342:7:8",
                      "typeDescriptions": {
                        "typeIdentifier": "t_function_require_pure$_t_bool_$returns$__$",
                        "typeString": "function (bool) pure"
                      }
                    },
                    "id": 2010,
                    "isConstant": false,
                    "isLValue": false,
                    "isPure": false,
                    "kind": "functionCall",
                    "lValueRequested": false,
                    "names": [],
                    "nodeType": "FunctionCall",
                    "src": "342:29:8",
                    "typeDescriptions": {
                      "typeIdentifier": "t_tuple$__$",
                      "typeString": "tuple()"
                    }
                  },
                  "id": 2011,
                  "nodeType": "ExpressionStatement",
                  "src": "342:29:8"
                },
                {
                  "id": 2012,
                  "nodeType": "PlaceholderStatement",
                  "src": "381:1:8"
                }
              ]
            },
            "documentation": null,
            "id": 2014,
            "name": "onlyPauser",
            "nodeType": "ModifierDefinition",
            "parameters": {
              "id": 2004,
              "nodeType": "ParameterList",
              "parameters": [],
              "src": "329:2:8"
            },
            "src": "310:79:8",
            "visibility": "internal"
          },
          {
            "body": {
              "id": 2026,
              "nodeType": "Block",
              "src": "457:45:8",
              "statements": [
                {
                  "expression": {
                    "argumentTypes": null,
                    "arguments": [
                      {
                        "argumentTypes": null,
                        "id": 2023,
                        "name": "account",
                        "nodeType": "Identifier",
                        "overloadedDeclarations": [],
                        "referencedDeclaration": 2016,
                        "src": "487:7:8",
                        "typeDescriptions": {
                          "typeIdentifier": "t_address",
                          "typeString": "address"
                        }
                      }
                    ],
                    "expression": {
                      "argumentTypes": [
                        {
                          "typeIdentifier": "t_address",
                          "typeString": "address"
                        }
                      ],
                      "expression": {
                        "argumentTypes": null,
                        "id": 2021,
                        "name": "_pausers",
                        "nodeType": "Identifier",
                        "overloadedDeclarations": [],
                        "referencedDeclaration": 1994,
                        "src": "474:8:8",
                        "typeDescriptions": {
                          "typeIdentifier": "t_struct$_Role_$1891_storage",
                          "typeString": "struct Roles.Role storage ref"
                        }
                      },
                      "id": 2022,
                      "isConstant": false,
                      "isLValue": true,
                      "isPure": false,
                      "lValueRequested": false,
                      "memberName": "has",
                      "nodeType": "MemberAccess",
                      "referencedDeclaration": 1977,
                      "src": "474:12:8",
                      "typeDescriptions": {
                        "typeIdentifier": "t_function_internal_view$_t_struct$_Role_$1891_storage_ptr_$_t_address_$returns$_t_bool_$bound_to$_t_struct$_Role_$1891_storage_ptr_$",
                        "typeString": "function (struct Roles.Role storage pointer,address) view returns (bool)"
                      }
                    },
                    "id": 2024,
                    "isConstant": false,
                    "isLValue": false,
                    "isPure": false,
                    "kind": "functionCall",
                    "lValueRequested": false,
                    "names": [],
                    "nodeType": "FunctionCall",
                    "src": "474:21:8",
                    "typeDescriptions": {
                      "typeIdentifier": "t_bool",
                      "typeString": "bool"
                    }
                  },
                  "functionReturnParameters": 2020,
                  "id": 2025,
                  "nodeType": "Return",
                  "src": "467:28:8"
                }
              ]
            },
            "documentation": null,
            "id": 2027,
            "implemented": true,
            "kind": "function",
            "modifiers": [],
            "name": "isPauser",
            "nodeType": "FunctionDefinition",
            "parameters": {
              "id": 2017,
              "nodeType": "ParameterList",
              "parameters": [
                {
                  "constant": false,
                  "id": 2016,
                  "name": "account",
                  "nodeType": "VariableDeclaration",
                  "scope": 2027,
                  "src": "413:15:8",
                  "stateVariable": false,
                  "storageLocation": "default",
                  "typeDescriptions": {
                    "typeIdentifier": "t_address",
                    "typeString": "address"
                  },
                  "typeName": {
                    "id": 2015,
                    "name": "address",
                    "nodeType": "ElementaryTypeName",
                    "src": "413:7:8",
                    "stateMutability": "nonpayable",
                    "typeDescriptions": {
                      "typeIdentifier": "t_address",
                      "typeString": "address"
                    }
                  },
                  "value": null,
                  "visibility": "internal"
                }
              ],
              "src": "412:17:8"
            },
            "returnParameters": {
              "id": 2020,
              "nodeType": "ParameterList",
              "parameters": [
                {
                  "constant": false,
                  "id": 2019,
                  "name": "",
                  "nodeType": "VariableDeclaration",
                  "scope": 2027,
                  "src": "451:4:8",
                  "stateVariable": false,
                  "storageLocation": "default",
                  "typeDescriptions": {
                    "typeIdentifier": "t_bool",
                    "typeString": "bool"
                  },
                  "typeName": {
                    "id": 2018,
                    "name": "bool",
                    "nodeType": "ElementaryTypeName",
                    "src": "451:4:8",
                    "typeDescriptions": {
                      "typeIdentifier": "t_bool",
                      "typeString": "bool"
                    }
                  },
                  "value": null,
                  "visibility": "internal"
                }
              ],
              "src": "450:6:8"
            },
            "scope": 2081,
            "src": "395:107:8",
            "stateMutability": "view",
            "superFunction": null,
            "visibility": "public"
          },
          {
            "body": {
              "id": 2038,
              "nodeType": "Block",
              "src": "562:36:8",
              "statements": [
                {
                  "expression": {
                    "argumentTypes": null,
                    "arguments": [
                      {
                        "argumentTypes": null,
                        "id": 2035,
                        "name": "account",
                        "nodeType": "Identifier",
                        "overloadedDeclarations": [],
                        "referencedDeclaration": 2029,
                        "src": "583:7:8",
                        "typeDescriptions": {
                          "typeIdentifier": "t_address",
                          "typeString": "address"
                        }
                      }
                    ],
                    "expression": {
                      "argumentTypes": [
                        {
                          "typeIdentifier": "t_address",
                          "typeString": "address"
                        }
                      ],
                      "id": 2034,
                      "name": "_addPauser",
                      "nodeType": "Identifier",
                      "overloadedDeclarations": [],
                      "referencedDeclaration": 2064,
                      "src": "572:10:8",
                      "typeDescriptions": {
                        "typeIdentifier": "t_function_internal_nonpayable$_t_address_$returns$__$",
                        "typeString": "function (address)"
                      }
                    },
                    "id": 2036,
                    "isConstant": false,
                    "isLValue": false,
                    "isPure": false,
                    "kind": "functionCall",
                    "lValueRequested": false,
                    "names": [],
                    "nodeType": "FunctionCall",
                    "src": "572:19:8",
                    "typeDescriptions": {
                      "typeIdentifier": "t_tuple$__$",
                      "typeString": "tuple()"
                    }
                  },
                  "id": 2037,
                  "nodeType": "ExpressionStatement",
                  "src": "572:19:8"
                }
              ]
            },
            "documentation": null,
            "id": 2039,
            "implemented": true,
            "kind": "function",
            "modifiers": [
              {
                "arguments": null,
                "id": 2032,
                "modifierName": {
                  "argumentTypes": null,
                  "id": 2031,
                  "name": "onlyPauser",
                  "nodeType": "Identifier",
                  "overloadedDeclarations": [],
                  "referencedDeclaration": 2014,
                  "src": "551:10:8",
                  "typeDescriptions": {
                    "typeIdentifier": "t_modifier$__$",
                    "typeString": "modifier ()"
                  }
                },
                "nodeType": "ModifierInvocation",
                "src": "551:10:8"
              }
            ],
            "name": "addPauser",
            "nodeType": "FunctionDefinition",
            "parameters": {
              "id": 2030,
              "nodeType": "ParameterList",
              "parameters": [
                {
                  "constant": false,
                  "id": 2029,
                  "name": "account",
                  "nodeType": "VariableDeclaration",
                  "scope": 2039,
                  "src": "527:15:8",
                  "stateVariable": false,
                  "storageLocation": "default",
                  "typeDescriptions": {
                    "typeIdentifier": "t_address",
                    "typeString": "address"
                  },
                  "typeName": {
                    "id": 2028,
                    "name": "address",
                    "nodeType": "ElementaryTypeName",
                    "src": "527:7:8",
                    "stateMutability": "nonpayable",
                    "typeDescriptions": {
                      "typeIdentifier": "t_address",
                      "typeString": "address"
                    }
                  },
                  "value": null,
                  "visibility": "internal"
                }
              ],
              "src": "526:17:8"
            },
            "returnParameters": {
              "id": 2033,
              "nodeType": "ParameterList",
              "parameters": [],
              "src": "562:0:8"
            },
            "scope": 2081,
            "src": "508:90:8",
            "stateMutability": "nonpayable",
            "superFunction": null,
            "visibility": "public"
          },
          {
            "body": {
              "id": 2047,
              "nodeType": "Block",
              "src": "637:42:8",
              "statements": [
                {
                  "expression": {
                    "argumentTypes": null,
                    "arguments": [
                      {
                        "argumentTypes": null,
                        "expression": {
                          "argumentTypes": null,
                          "id": 2043,
                          "name": "msg",
                          "nodeType": "Identifier",
                          "overloadedDeclarations": [],
                          "referencedDeclaration": 3314,
                          "src": "661:3:8",
                          "typeDescriptions": {
                            "typeIdentifier": "t_magic_message",
                            "typeString": "msg"
                          }
                        },
                        "id": 2044,
                        "isConstant": false,
                        "isLValue": false,
                        "isPure": false,
                        "lValueRequested": false,
                        "memberName": "sender",
                        "nodeType": "MemberAccess",
                        "referencedDeclaration": null,
                        "src": "661:10:8",
                        "typeDescriptions": {
                          "typeIdentifier": "t_address_payable",
                          "typeString": "address payable"
                        }
                      }
                    ],
                    "expression": {
                      "argumentTypes": [
                        {
                          "typeIdentifier": "t_address_payable",
                          "typeString": "address payable"
                        }
                      ],
                      "id": 2042,
                      "name": "_removePauser",
                      "nodeType": "Identifier",
                      "overloadedDeclarations": [],
                      "referencedDeclaration": 2080,
                      "src": "647:13:8",
                      "typeDescriptions": {
                        "typeIdentifier": "t_function_internal_nonpayable$_t_address_$returns$__$",
                        "typeString": "function (address)"
                      }
                    },
                    "id": 2045,
                    "isConstant": false,
                    "isLValue": false,
                    "isPure": false,
                    "kind": "functionCall",
                    "lValueRequested": false,
                    "names": [],
                    "nodeType": "FunctionCall",
                    "src": "647:25:8",
                    "typeDescriptions": {
                      "typeIdentifier": "t_tuple$__$",
                      "typeString": "tuple()"
                    }
                  },
                  "id": 2046,
                  "nodeType": "ExpressionStatement",
                  "src": "647:25:8"
                }
              ]
            },
            "documentation": null,
            "id": 2048,
            "implemented": true,
            "kind": "function",
            "modifiers": [],
            "name": "renouncePauser",
            "nodeType": "FunctionDefinition",
            "parameters": {
              "id": 2040,
              "nodeType": "ParameterList",
              "parameters": [],
              "src": "627:2:8"
            },
            "returnParameters": {
              "id": 2041,
              "nodeType": "ParameterList",
              "parameters": [],
              "src": "637:0:8"
            },
            "scope": 2081,
            "src": "604:75:8",
            "stateMutability": "nonpayable",
            "superFunction": null,
            "visibility": "public"
          },
          {
            "body": {
              "id": 2063,
              "nodeType": "Block",
              "src": "731:73:8",
              "statements": [
                {
                  "expression": {
                    "argumentTypes": null,
                    "arguments": [
                      {
                        "argumentTypes": null,
                        "id": 2056,
                        "name": "account",
                        "nodeType": "Identifier",
                        "overloadedDeclarations": [],
                        "referencedDeclaration": 2050,
                        "src": "754:7:8",
                        "typeDescriptions": {
                          "typeIdentifier": "t_address",
                          "typeString": "address"
                        }
                      }
                    ],
                    "expression": {
                      "argumentTypes": [
                        {
                          "typeIdentifier": "t_address",
                          "typeString": "address"
                        }
                      ],
                      "expression": {
                        "argumentTypes": null,
                        "id": 2053,
                        "name": "_pausers",
                        "nodeType": "Identifier",
                        "overloadedDeclarations": [],
                        "referencedDeclaration": 1994,
                        "src": "741:8:8",
                        "typeDescriptions": {
                          "typeIdentifier": "t_struct$_Role_$1891_storage",
                          "typeString": "struct Roles.Role storage ref"
                        }
                      },
                      "id": 2055,
                      "isConstant": false,
                      "isLValue": true,
                      "isPure": false,
                      "lValueRequested": false,
                      "memberName": "add",
                      "nodeType": "MemberAccess",
                      "referencedDeclaration": 1923,
                      "src": "741:12:8",
                      "typeDescriptions": {
                        "typeIdentifier": "t_function_internal_nonpayable$_t_struct$_Role_$1891_storage_ptr_$_t_address_$returns$__$bound_to$_t_struct$_Role_$1891_storage_ptr_$",
                        "typeString": "function (struct Roles.Role storage pointer,address)"
                      }
                    },
                    "id": 2057,
                    "isConstant": false,
                    "isLValue": false,
                    "isPure": false,
                    "kind": "functionCall",
                    "lValueRequested": false,
                    "names": [],
                    "nodeType": "FunctionCall",
                    "src": "741:21:8",
                    "typeDescriptions": {
                      "typeIdentifier": "t_tuple$__$",
                      "typeString": "tuple()"
                    }
                  },
                  "id": 2058,
                  "nodeType": "ExpressionStatement",
                  "src": "741:21:8"
                },
                {
                  "eventCall": {
                    "argumentTypes": null,
                    "arguments": [
                      {
                        "argumentTypes": null,
                        "id": 2060,
                        "name": "account",
                        "nodeType": "Identifier",
                        "overloadedDeclarations": [],
                        "referencedDeclaration": 2050,
                        "src": "789:7:8",
                        "typeDescriptions": {
                          "typeIdentifier": "t_address",
                          "typeString": "address"
                        }
                      }
                    ],
                    "expression": {
                      "argumentTypes": [
                        {
                          "typeIdentifier": "t_address",
                          "typeString": "address"
                        }
                      ],
                      "id": 2059,
                      "name": "PauserAdded",
                      "nodeType": "Identifier",
                      "overloadedDeclarations": [],
                      "referencedDeclaration": 1988,
                      "src": "777:11:8",
                      "typeDescriptions": {
                        "typeIdentifier": "t_function_event_nonpayable$_t_address_$returns$__$",
                        "typeString": "function (address)"
                      }
                    },
                    "id": 2061,
                    "isConstant": false,
                    "isLValue": false,
                    "isPure": false,
                    "kind": "functionCall",
                    "lValueRequested": false,
                    "names": [],
                    "nodeType": "FunctionCall",
                    "src": "777:20:8",
                    "typeDescriptions": {
                      "typeIdentifier": "t_tuple$__$",
                      "typeString": "tuple()"
                    }
                  },
                  "id": 2062,
                  "nodeType": "EmitStatement",
                  "src": "772:25:8"
                }
              ]
            },
            "documentation": null,
            "id": 2064,
            "implemented": true,
            "kind": "function",
            "modifiers": [],
            "name": "_addPauser",
            "nodeType": "FunctionDefinition",
            "parameters": {
              "id": 2051,
              "nodeType": "ParameterList",
              "parameters": [
                {
                  "constant": false,
                  "id": 2050,
                  "name": "account",
                  "nodeType": "VariableDeclaration",
                  "scope": 2064,
                  "src": "705:15:8",
                  "stateVariable": false,
                  "storageLocation": "default",
                  "typeDescriptions": {
                    "typeIdentifier": "t_address",
                    "typeString": "address"
                  },
                  "typeName": {
                    "id": 2049,
                    "name": "address",
                    "nodeType": "ElementaryTypeName",
                    "src": "705:7:8",
                    "stateMutability": "nonpayable",
                    "typeDescriptions": {
                      "typeIdentifier": "t_address",
                      "typeString": "address"
                    }
                  },
                  "value": null,
                  "visibility": "internal"
                }
              ],
              "src": "704:17:8"
            },
            "returnParameters": {
              "id": 2052,
              "nodeType": "ParameterList",
              "parameters": [],
              "src": "731:0:8"
            },
            "scope": 2081,
            "src": "685:119:8",
            "stateMutability": "nonpayable",
            "superFunction": null,
            "visibility": "internal"
          },
          {
            "body": {
              "id": 2079,
              "nodeType": "Block",
              "src": "859:78:8",
              "statements": [
                {
                  "expression": {
                    "argumentTypes": null,
                    "arguments": [
                      {
                        "argumentTypes": null,
                        "id": 2072,
                        "name": "account",
                        "nodeType": "Identifier",
                        "overloadedDeclarations": [],
                        "referencedDeclaration": 2066,
                        "src": "885:7:8",
                        "typeDescriptions": {
                          "typeIdentifier": "t_address",
                          "typeString": "address"
                        }
                      }
                    ],
                    "expression": {
                      "argumentTypes": [
                        {
                          "typeIdentifier": "t_address",
                          "typeString": "address"
                        }
                      ],
                      "expression": {
                        "argumentTypes": null,
                        "id": 2069,
                        "name": "_pausers",
                        "nodeType": "Identifier",
                        "overloadedDeclarations": [],
                        "referencedDeclaration": 1994,
                        "src": "869:8:8",
                        "typeDescriptions": {
                          "typeIdentifier": "t_struct$_Role_$1891_storage",
                          "typeString": "struct Roles.Role storage ref"
                        }
                      },
                      "id": 2071,
                      "isConstant": false,
                      "isLValue": true,
                      "isPure": false,
                      "lValueRequested": false,
                      "memberName": "remove",
                      "nodeType": "MemberAccess",
                      "referencedDeclaration": 1954,
                      "src": "869:15:8",
                      "typeDescriptions": {
                        "typeIdentifier": "t_function_internal_nonpayable$_t_struct$_Role_$1891_storage_ptr_$_t_address_$returns$__$bound_to$_t_struct$_Role_$1891_storage_ptr_$",
                        "typeString": "function (struct Roles.Role storage pointer,address)"
                      }
                    },
                    "id": 2073,
                    "isConstant": false,
                    "isLValue": false,
                    "isPure": false,
                    "kind": "functionCall",
                    "lValueRequested": false,
                    "names": [],
                    "nodeType": "FunctionCall",
                    "src": "869:24:8",
                    "typeDescriptions": {
                      "typeIdentifier": "t_tuple$__$",
                      "typeString": "tuple()"
                    }
                  },
                  "id": 2074,
                  "nodeType": "ExpressionStatement",
                  "src": "869:24:8"
                },
                {
                  "eventCall": {
                    "argumentTypes": null,
                    "arguments": [
                      {
                        "argumentTypes": null,
                        "id": 2076,
                        "name": "account",
                        "nodeType": "Identifier",
                        "overloadedDeclarations": [],
                        "referencedDeclaration": 2066,
                        "src": "922:7:8",
                        "typeDescriptions": {
                          "typeIdentifier": "t_address",
                          "typeString": "address"
                        }
                      }
                    ],
                    "expression": {
                      "argumentTypes": [
                        {
                          "typeIdentifier": "t_address",
                          "typeString": "address"
                        }
                      ],
                      "id": 2075,
                      "name": "PauserRemoved",
                      "nodeType": "Identifier",
                      "overloadedDeclarations": [],
                      "referencedDeclaration": 1992,
                      "src": "908:13:8",
                      "typeDescriptions": {
                        "typeIdentifier": "t_function_event_nonpayable$_t_address_$returns$__$",
                        "typeString": "function (address)"
                      }
                    },
                    "id": 2077,
                    "isConstant": false,
                    "isLValue": false,
                    "isPure": false,
                    "kind": "functionCall",
                    "lValueRequested": false,
                    "names": [],
                    "nodeType": "FunctionCall",
                    "src": "908:22:8",
                    "typeDescriptions": {
                      "typeIdentifier": "t_tuple$__$",
                      "typeString": "tuple()"
                    }
                  },
                  "id": 2078,
                  "nodeType": "EmitStatement",
                  "src": "903:27:8"
                }
              ]
            },
            "documentation": null,
            "id": 2080,
            "implemented": true,
            "kind": "function",
            "modifiers": [],
            "name": "_removePauser",
            "nodeType": "FunctionDefinition",
            "parameters": {
              "id": 2067,
              "nodeType": "ParameterList",
              "parameters": [
                {
                  "constant": false,
                  "id": 2066,
                  "name": "account",
                  "nodeType": "VariableDeclaration",
                  "scope": 2080,
                  "src": "833:15:8",
                  "stateVariable": false,
                  "storageLocation": "default",
                  "typeDescriptions": {
                    "typeIdentifier": "t_address",
                    "typeString": "address"
                  },
                  "typeName": {
                    "id": 2065,
                    "name": "address",
                    "nodeType": "ElementaryTypeName",
                    "src": "833:7:8",
                    "stateMutability": "nonpayable",
                    "typeDescriptions": {
                      "typeIdentifier": "t_address",
                      "typeString": "address"
                    }
                  },
                  "value": null,
                  "visibility": "internal"
                }
              ],
              "src": "832:17:8"
            },
            "returnParameters": {
              "id": 2068,
              "nodeType": "ParameterList",
              "parameters": [],
              "src": "859:0:8"
            },
            "scope": 2081,
            "src": "810:127:8",
            "stateMutability": "nonpayable",
            "superFunction": null,
            "visibility": "internal"
          }
        ],
        "scope": 2082,
        "src": "49:890:8"
      }
    ],
    "src": "0:940:8"
  },
  "legacyAST": {
    "absolutePath": "openzeppelin-solidity/contracts/access/roles/PauserRole.sol",
    "exportedSymbols": {
      "PauserRole": [
        2081
      ]
    },
    "id": 2082,
    "nodeType": "SourceUnit",
    "nodes": [
      {
        "id": 1980,
        "literals": [
          "solidity",
          "^",
          "0.5",
          ".2"
        ],
        "nodeType": "PragmaDirective",
        "src": "0:23:8"
      },
      {
        "absolutePath": "openzeppelin-solidity/contracts/access/Roles.sol",
        "file": "../Roles.sol",
        "id": 1981,
        "nodeType": "ImportDirective",
        "scope": 2082,
        "sourceUnit": 1979,
        "src": "25:22:8",
        "symbolAliases": [],
        "unitAlias": ""
      },
      {
        "baseContracts": [],
        "contractDependencies": [],
        "contractKind": "contract",
        "documentation": null,
        "fullyImplemented": true,
        "id": 2081,
        "linearizedBaseContracts": [
          2081
        ],
        "name": "PauserRole",
        "nodeType": "ContractDefinition",
        "nodes": [
          {
            "id": 1984,
            "libraryName": {
              "contractScope": null,
              "id": 1982,
              "name": "Roles",
              "nodeType": "UserDefinedTypeName",
              "referencedDeclaration": 1978,
              "src": "81:5:8",
              "typeDescriptions": {
                "typeIdentifier": "t_contract$_Roles_$1978",
                "typeString": "library Roles"
              }
            },
            "nodeType": "UsingForDirective",
            "src": "75:27:8",
            "typeName": {
              "contractScope": null,
              "id": 1983,
              "name": "Roles.Role",
              "nodeType": "UserDefinedTypeName",
              "referencedDeclaration": 1891,
              "src": "91:10:8",
              "typeDescriptions": {
                "typeIdentifier": "t_struct$_Role_$1891_storage_ptr",
                "typeString": "struct Roles.Role"
              }
            }
          },
          {
            "anonymous": false,
            "documentation": null,
            "id": 1988,
            "name": "PauserAdded",
            "nodeType": "EventDefinition",
            "parameters": {
              "id": 1987,
              "nodeType": "ParameterList",
              "parameters": [
                {
                  "constant": false,
                  "id": 1986,
                  "indexed": true,
                  "name": "account",
                  "nodeType": "VariableDeclaration",
                  "scope": 1988,
                  "src": "126:23:8",
                  "stateVariable": false,
                  "storageLocation": "default",
                  "typeDescriptions": {
                    "typeIdentifier": "t_address",
                    "typeString": "address"
                  },
                  "typeName": {
                    "id": 1985,
                    "name": "address",
                    "nodeType": "ElementaryTypeName",
                    "src": "126:7:8",
                    "stateMutability": "nonpayable",
                    "typeDescriptions": {
                      "typeIdentifier": "t_address",
                      "typeString": "address"
                    }
                  },
                  "value": null,
                  "visibility": "internal"
                }
              ],
              "src": "125:25:8"
            },
            "src": "108:43:8"
          },
          {
            "anonymous": false,
            "documentation": null,
            "id": 1992,
            "name": "PauserRemoved",
            "nodeType": "EventDefinition",
            "parameters": {
              "id": 1991,
              "nodeType": "ParameterList",
              "parameters": [
                {
                  "constant": false,
                  "id": 1990,
                  "indexed": true,
                  "name": "account",
                  "nodeType": "VariableDeclaration",
                  "scope": 1992,
                  "src": "176:23:8",
                  "stateVariable": false,
                  "storageLocation": "default",
                  "typeDescriptions": {
                    "typeIdentifier": "t_address",
                    "typeString": "address"
                  },
                  "typeName": {
                    "id": 1989,
                    "name": "address",
                    "nodeType": "ElementaryTypeName",
                    "src": "176:7:8",
                    "stateMutability": "nonpayable",
                    "typeDescriptions": {
                      "typeIdentifier": "t_address",
                      "typeString": "address"
                    }
                  },
                  "value": null,
                  "visibility": "internal"
                }
              ],
              "src": "175:25:8"
            },
            "src": "156:45:8"
          },
          {
            "constant": false,
            "id": 1994,
            "name": "_pausers",
            "nodeType": "VariableDeclaration",
            "scope": 2081,
            "src": "207:27:8",
            "stateVariable": true,
            "storageLocation": "default",
            "typeDescriptions": {
              "typeIdentifier": "t_struct$_Role_$1891_storage",
              "typeString": "struct Roles.Role"
            },
            "typeName": {
              "contractScope": null,
              "id": 1993,
              "name": "Roles.Role",
              "nodeType": "UserDefinedTypeName",
              "referencedDeclaration": 1891,
              "src": "207:10:8",
              "typeDescriptions": {
                "typeIdentifier": "t_struct$_Role_$1891_storage_ptr",
                "typeString": "struct Roles.Role"
              }
            },
            "value": null,
            "visibility": "private"
          },
          {
            "body": {
              "id": 2002,
              "nodeType": "Block",
              "src": "265:39:8",
              "statements": [
                {
                  "expression": {
                    "argumentTypes": null,
                    "arguments": [
                      {
                        "argumentTypes": null,
                        "expression": {
                          "argumentTypes": null,
                          "id": 1998,
                          "name": "msg",
                          "nodeType": "Identifier",
                          "overloadedDeclarations": [],
                          "referencedDeclaration": 3314,
                          "src": "286:3:8",
                          "typeDescriptions": {
                            "typeIdentifier": "t_magic_message",
                            "typeString": "msg"
                          }
                        },
                        "id": 1999,
                        "isConstant": false,
                        "isLValue": false,
                        "isPure": false,
                        "lValueRequested": false,
                        "memberName": "sender",
                        "nodeType": "MemberAccess",
                        "referencedDeclaration": null,
                        "src": "286:10:8",
                        "typeDescriptions": {
                          "typeIdentifier": "t_address_payable",
                          "typeString": "address payable"
                        }
                      }
                    ],
                    "expression": {
                      "argumentTypes": [
                        {
                          "typeIdentifier": "t_address_payable",
                          "typeString": "address payable"
                        }
                      ],
                      "id": 1997,
                      "name": "_addPauser",
                      "nodeType": "Identifier",
                      "overloadedDeclarations": [],
                      "referencedDeclaration": 2064,
                      "src": "275:10:8",
                      "typeDescriptions": {
                        "typeIdentifier": "t_function_internal_nonpayable$_t_address_$returns$__$",
                        "typeString": "function (address)"
                      }
                    },
                    "id": 2000,
                    "isConstant": false,
                    "isLValue": false,
                    "isPure": false,
                    "kind": "functionCall",
                    "lValueRequested": false,
                    "names": [],
                    "nodeType": "FunctionCall",
                    "src": "275:22:8",
                    "typeDescriptions": {
                      "typeIdentifier": "t_tuple$__$",
                      "typeString": "tuple()"
                    }
                  },
                  "id": 2001,
                  "nodeType": "ExpressionStatement",
                  "src": "275:22:8"
                }
              ]
            },
            "documentation": null,
            "id": 2003,
            "implemented": true,
            "kind": "constructor",
            "modifiers": [],
            "name": "",
            "nodeType": "FunctionDefinition",
            "parameters": {
              "id": 1995,
              "nodeType": "ParameterList",
              "parameters": [],
              "src": "253:2:8"
            },
            "returnParameters": {
              "id": 1996,
              "nodeType": "ParameterList",
              "parameters": [],
              "src": "265:0:8"
            },
            "scope": 2081,
            "src": "241:63:8",
            "stateMutability": "nonpayable",
            "superFunction": null,
            "visibility": "internal"
          },
          {
            "body": {
              "id": 2013,
              "nodeType": "Block",
              "src": "332:57:8",
              "statements": [
                {
                  "expression": {
                    "argumentTypes": null,
                    "arguments": [
                      {
                        "argumentTypes": null,
                        "arguments": [
                          {
                            "argumentTypes": null,
                            "expression": {
                              "argumentTypes": null,
                              "id": 2007,
                              "name": "msg",
                              "nodeType": "Identifier",
                              "overloadedDeclarations": [],
                              "referencedDeclaration": 3314,
                              "src": "359:3:8",
                              "typeDescriptions": {
                                "typeIdentifier": "t_magic_message",
                                "typeString": "msg"
                              }
                            },
                            "id": 2008,
                            "isConstant": false,
                            "isLValue": false,
                            "isPure": false,
                            "lValueRequested": false,
                            "memberName": "sender",
                            "nodeType": "MemberAccess",
                            "referencedDeclaration": null,
                            "src": "359:10:8",
                            "typeDescriptions": {
                              "typeIdentifier": "t_address_payable",
                              "typeString": "address payable"
                            }
                          }
                        ],
                        "expression": {
                          "argumentTypes": [
                            {
                              "typeIdentifier": "t_address_payable",
                              "typeString": "address payable"
                            }
                          ],
                          "id": 2006,
                          "name": "isPauser",
                          "nodeType": "Identifier",
                          "overloadedDeclarations": [],
                          "referencedDeclaration": 2027,
                          "src": "350:8:8",
                          "typeDescriptions": {
                            "typeIdentifier": "t_function_internal_view$_t_address_$returns$_t_bool_$",
                            "typeString": "function (address) view returns (bool)"
                          }
                        },
                        "id": 2009,
                        "isConstant": false,
                        "isLValue": false,
                        "isPure": false,
                        "kind": "functionCall",
                        "lValueRequested": false,
                        "names": [],
                        "nodeType": "FunctionCall",
                        "src": "350:20:8",
                        "typeDescriptions": {
                          "typeIdentifier": "t_bool",
                          "typeString": "bool"
                        }
                      }
                    ],
                    "expression": {
                      "argumentTypes": [
                        {
                          "typeIdentifier": "t_bool",
                          "typeString": "bool"
                        }
                      ],
                      "id": 2005,
                      "name": "require",
                      "nodeType": "Identifier",
                      "overloadedDeclarations": [
                        3317,
                        3318
                      ],
                      "referencedDeclaration": 3317,
                      "src": "342:7:8",
                      "typeDescriptions": {
                        "typeIdentifier": "t_function_require_pure$_t_bool_$returns$__$",
                        "typeString": "function (bool) pure"
                      }
                    },
                    "id": 2010,
                    "isConstant": false,
                    "isLValue": false,
                    "isPure": false,
                    "kind": "functionCall",
                    "lValueRequested": false,
                    "names": [],
                    "nodeType": "FunctionCall",
                    "src": "342:29:8",
                    "typeDescriptions": {
                      "typeIdentifier": "t_tuple$__$",
                      "typeString": "tuple()"
                    }
                  },
                  "id": 2011,
                  "nodeType": "ExpressionStatement",
                  "src": "342:29:8"
                },
                {
                  "id": 2012,
                  "nodeType": "PlaceholderStatement",
                  "src": "381:1:8"
                }
              ]
            },
            "documentation": null,
            "id": 2014,
            "name": "onlyPauser",
            "nodeType": "ModifierDefinition",
            "parameters": {
              "id": 2004,
              "nodeType": "ParameterList",
              "parameters": [],
              "src": "329:2:8"
            },
            "src": "310:79:8",
            "visibility": "internal"
          },
          {
            "body": {
              "id": 2026,
              "nodeType": "Block",
              "src": "457:45:8",
              "statements": [
                {
                  "expression": {
                    "argumentTypes": null,
                    "arguments": [
                      {
                        "argumentTypes": null,
                        "id": 2023,
                        "name": "account",
                        "nodeType": "Identifier",
                        "overloadedDeclarations": [],
                        "referencedDeclaration": 2016,
                        "src": "487:7:8",
                        "typeDescriptions": {
                          "typeIdentifier": "t_address",
                          "typeString": "address"
                        }
                      }
                    ],
                    "expression": {
                      "argumentTypes": [
                        {
                          "typeIdentifier": "t_address",
                          "typeString": "address"
                        }
                      ],
                      "expression": {
                        "argumentTypes": null,
                        "id": 2021,
                        "name": "_pausers",
                        "nodeType": "Identifier",
                        "overloadedDeclarations": [],
                        "referencedDeclaration": 1994,
                        "src": "474:8:8",
                        "typeDescriptions": {
                          "typeIdentifier": "t_struct$_Role_$1891_storage",
                          "typeString": "struct Roles.Role storage ref"
                        }
                      },
                      "id": 2022,
                      "isConstant": false,
                      "isLValue": true,
                      "isPure": false,
                      "lValueRequested": false,
                      "memberName": "has",
                      "nodeType": "MemberAccess",
                      "referencedDeclaration": 1977,
                      "src": "474:12:8",
                      "typeDescriptions": {
                        "typeIdentifier": "t_function_internal_view$_t_struct$_Role_$1891_storage_ptr_$_t_address_$returns$_t_bool_$bound_to$_t_struct$_Role_$1891_storage_ptr_$",
                        "typeString": "function (struct Roles.Role storage pointer,address) view returns (bool)"
                      }
                    },
                    "id": 2024,
                    "isConstant": false,
                    "isLValue": false,
                    "isPure": false,
                    "kind": "functionCall",
                    "lValueRequested": false,
                    "names": [],
                    "nodeType": "FunctionCall",
                    "src": "474:21:8",
                    "typeDescriptions": {
                      "typeIdentifier": "t_bool",
                      "typeString": "bool"
                    }
                  },
                  "functionReturnParameters": 2020,
                  "id": 2025,
                  "nodeType": "Return",
                  "src": "467:28:8"
                }
              ]
            },
            "documentation": null,
            "id": 2027,
            "implemented": true,
            "kind": "function",
            "modifiers": [],
            "name": "isPauser",
            "nodeType": "FunctionDefinition",
            "parameters": {
              "id": 2017,
              "nodeType": "ParameterList",
              "parameters": [
                {
                  "constant": false,
                  "id": 2016,
                  "name": "account",
                  "nodeType": "VariableDeclaration",
                  "scope": 2027,
                  "src": "413:15:8",
                  "stateVariable": false,
                  "storageLocation": "default",
                  "typeDescriptions": {
                    "typeIdentifier": "t_address",
                    "typeString": "address"
                  },
                  "typeName": {
                    "id": 2015,
                    "name": "address",
                    "nodeType": "ElementaryTypeName",
                    "src": "413:7:8",
                    "stateMutability": "nonpayable",
                    "typeDescriptions": {
                      "typeIdentifier": "t_address",
                      "typeString": "address"
                    }
                  },
                  "value": null,
                  "visibility": "internal"
                }
              ],
              "src": "412:17:8"
            },
            "returnParameters": {
              "id": 2020,
              "nodeType": "ParameterList",
              "parameters": [
                {
                  "constant": false,
                  "id": 2019,
                  "name": "",
                  "nodeType": "VariableDeclaration",
                  "scope": 2027,
                  "src": "451:4:8",
                  "stateVariable": false,
                  "storageLocation": "default",
                  "typeDescriptions": {
                    "typeIdentifier": "t_bool",
                    "typeString": "bool"
                  },
                  "typeName": {
                    "id": 2018,
                    "name": "bool",
                    "nodeType": "ElementaryTypeName",
                    "src": "451:4:8",
                    "typeDescriptions": {
                      "typeIdentifier": "t_bool",
                      "typeString": "bool"
                    }
                  },
                  "value": null,
                  "visibility": "internal"
                }
              ],
              "src": "450:6:8"
            },
            "scope": 2081,
            "src": "395:107:8",
            "stateMutability": "view",
            "superFunction": null,
            "visibility": "public"
          },
          {
            "body": {
              "id": 2038,
              "nodeType": "Block",
              "src": "562:36:8",
              "statements": [
                {
                  "expression": {
                    "argumentTypes": null,
                    "arguments": [
                      {
                        "argumentTypes": null,
                        "id": 2035,
                        "name": "account",
                        "nodeType": "Identifier",
                        "overloadedDeclarations": [],
                        "referencedDeclaration": 2029,
                        "src": "583:7:8",
                        "typeDescriptions": {
                          "typeIdentifier": "t_address",
                          "typeString": "address"
                        }
                      }
                    ],
                    "expression": {
                      "argumentTypes": [
                        {
                          "typeIdentifier": "t_address",
                          "typeString": "address"
                        }
                      ],
                      "id": 2034,
                      "name": "_addPauser",
                      "nodeType": "Identifier",
                      "overloadedDeclarations": [],
                      "referencedDeclaration": 2064,
                      "src": "572:10:8",
                      "typeDescriptions": {
                        "typeIdentifier": "t_function_internal_nonpayable$_t_address_$returns$__$",
                        "typeString": "function (address)"
                      }
                    },
                    "id": 2036,
                    "isConstant": false,
                    "isLValue": false,
                    "isPure": false,
                    "kind": "functionCall",
                    "lValueRequested": false,
                    "names": [],
                    "nodeType": "FunctionCall",
                    "src": "572:19:8",
                    "typeDescriptions": {
                      "typeIdentifier": "t_tuple$__$",
                      "typeString": "tuple()"
                    }
                  },
                  "id": 2037,
                  "nodeType": "ExpressionStatement",
                  "src": "572:19:8"
                }
              ]
            },
            "documentation": null,
            "id": 2039,
            "implemented": true,
            "kind": "function",
            "modifiers": [
              {
                "arguments": null,
                "id": 2032,
                "modifierName": {
                  "argumentTypes": null,
                  "id": 2031,
                  "name": "onlyPauser",
                  "nodeType": "Identifier",
                  "overloadedDeclarations": [],
                  "referencedDeclaration": 2014,
                  "src": "551:10:8",
                  "typeDescriptions": {
                    "typeIdentifier": "t_modifier$__$",
                    "typeString": "modifier ()"
                  }
                },
                "nodeType": "ModifierInvocation",
                "src": "551:10:8"
              }
            ],
            "name": "addPauser",
            "nodeType": "FunctionDefinition",
            "parameters": {
              "id": 2030,
              "nodeType": "ParameterList",
              "parameters": [
                {
                  "constant": false,
                  "id": 2029,
                  "name": "account",
                  "nodeType": "VariableDeclaration",
                  "scope": 2039,
                  "src": "527:15:8",
                  "stateVariable": false,
                  "storageLocation": "default",
                  "typeDescriptions": {
                    "typeIdentifier": "t_address",
                    "typeString": "address"
                  },
                  "typeName": {
                    "id": 2028,
                    "name": "address",
                    "nodeType": "ElementaryTypeName",
                    "src": "527:7:8",
                    "stateMutability": "nonpayable",
                    "typeDescriptions": {
                      "typeIdentifier": "t_address",
                      "typeString": "address"
                    }
                  },
                  "value": null,
                  "visibility": "internal"
                }
              ],
              "src": "526:17:8"
            },
            "returnParameters": {
              "id": 2033,
              "nodeType": "ParameterList",
              "parameters": [],
              "src": "562:0:8"
            },
            "scope": 2081,
            "src": "508:90:8",
            "stateMutability": "nonpayable",
            "superFunction": null,
            "visibility": "public"
          },
          {
            "body": {
              "id": 2047,
              "nodeType": "Block",
              "src": "637:42:8",
              "statements": [
                {
                  "expression": {
                    "argumentTypes": null,
                    "arguments": [
                      {
                        "argumentTypes": null,
                        "expression": {
                          "argumentTypes": null,
                          "id": 2043,
                          "name": "msg",
                          "nodeType": "Identifier",
                          "overloadedDeclarations": [],
                          "referencedDeclaration": 3314,
                          "src": "661:3:8",
                          "typeDescriptions": {
                            "typeIdentifier": "t_magic_message",
                            "typeString": "msg"
                          }
                        },
                        "id": 2044,
                        "isConstant": false,
                        "isLValue": false,
                        "isPure": false,
                        "lValueRequested": false,
                        "memberName": "sender",
                        "nodeType": "MemberAccess",
                        "referencedDeclaration": null,
                        "src": "661:10:8",
                        "typeDescriptions": {
                          "typeIdentifier": "t_address_payable",
                          "typeString": "address payable"
                        }
                      }
                    ],
                    "expression": {
                      "argumentTypes": [
                        {
                          "typeIdentifier": "t_address_payable",
                          "typeString": "address payable"
                        }
                      ],
                      "id": 2042,
                      "name": "_removePauser",
                      "nodeType": "Identifier",
                      "overloadedDeclarations": [],
                      "referencedDeclaration": 2080,
                      "src": "647:13:8",
                      "typeDescriptions": {
                        "typeIdentifier": "t_function_internal_nonpayable$_t_address_$returns$__$",
                        "typeString": "function (address)"
                      }
                    },
                    "id": 2045,
                    "isConstant": false,
                    "isLValue": false,
                    "isPure": false,
                    "kind": "functionCall",
                    "lValueRequested": false,
                    "names": [],
                    "nodeType": "FunctionCall",
                    "src": "647:25:8",
                    "typeDescriptions": {
                      "typeIdentifier": "t_tuple$__$",
                      "typeString": "tuple()"
                    }
                  },
                  "id": 2046,
                  "nodeType": "ExpressionStatement",
                  "src": "647:25:8"
                }
              ]
            },
            "documentation": null,
            "id": 2048,
            "implemented": true,
            "kind": "function",
            "modifiers": [],
            "name": "renouncePauser",
            "nodeType": "FunctionDefinition",
            "parameters": {
              "id": 2040,
              "nodeType": "ParameterList",
              "parameters": [],
              "src": "627:2:8"
            },
            "returnParameters": {
              "id": 2041,
              "nodeType": "ParameterList",
              "parameters": [],
              "src": "637:0:8"
            },
            "scope": 2081,
            "src": "604:75:8",
            "stateMutability": "nonpayable",
            "superFunction": null,
            "visibility": "public"
          },
          {
            "body": {
              "id": 2063,
              "nodeType": "Block",
              "src": "731:73:8",
              "statements": [
                {
                  "expression": {
                    "argumentTypes": null,
                    "arguments": [
                      {
                        "argumentTypes": null,
                        "id": 2056,
                        "name": "account",
                        "nodeType": "Identifier",
                        "overloadedDeclarations": [],
                        "referencedDeclaration": 2050,
                        "src": "754:7:8",
                        "typeDescriptions": {
                          "typeIdentifier": "t_address",
                          "typeString": "address"
                        }
                      }
                    ],
                    "expression": {
                      "argumentTypes": [
                        {
                          "typeIdentifier": "t_address",
                          "typeString": "address"
                        }
                      ],
                      "expression": {
                        "argumentTypes": null,
                        "id": 2053,
                        "name": "_pausers",
                        "nodeType": "Identifier",
                        "overloadedDeclarations": [],
                        "referencedDeclaration": 1994,
                        "src": "741:8:8",
                        "typeDescriptions": {
                          "typeIdentifier": "t_struct$_Role_$1891_storage",
                          "typeString": "struct Roles.Role storage ref"
                        }
                      },
                      "id": 2055,
                      "isConstant": false,
                      "isLValue": true,
                      "isPure": false,
                      "lValueRequested": false,
                      "memberName": "add",
                      "nodeType": "MemberAccess",
                      "referencedDeclaration": 1923,
                      "src": "741:12:8",
                      "typeDescriptions": {
                        "typeIdentifier": "t_function_internal_nonpayable$_t_struct$_Role_$1891_storage_ptr_$_t_address_$returns$__$bound_to$_t_struct$_Role_$1891_storage_ptr_$",
                        "typeString": "function (struct Roles.Role storage pointer,address)"
                      }
                    },
                    "id": 2057,
                    "isConstant": false,
                    "isLValue": false,
                    "isPure": false,
                    "kind": "functionCall",
                    "lValueRequested": false,
                    "names": [],
                    "nodeType": "FunctionCall",
                    "src": "741:21:8",
                    "typeDescriptions": {
                      "typeIdentifier": "t_tuple$__$",
                      "typeString": "tuple()"
                    }
                  },
                  "id": 2058,
                  "nodeType": "ExpressionStatement",
                  "src": "741:21:8"
                },
                {
                  "eventCall": {
                    "argumentTypes": null,
                    "arguments": [
                      {
                        "argumentTypes": null,
                        "id": 2060,
                        "name": "account",
                        "nodeType": "Identifier",
                        "overloadedDeclarations": [],
                        "referencedDeclaration": 2050,
                        "src": "789:7:8",
                        "typeDescriptions": {
                          "typeIdentifier": "t_address",
                          "typeString": "address"
                        }
                      }
                    ],
                    "expression": {
                      "argumentTypes": [
                        {
                          "typeIdentifier": "t_address",
                          "typeString": "address"
                        }
                      ],
                      "id": 2059,
                      "name": "PauserAdded",
                      "nodeType": "Identifier",
                      "overloadedDeclarations": [],
                      "referencedDeclaration": 1988,
                      "src": "777:11:8",
                      "typeDescriptions": {
                        "typeIdentifier": "t_function_event_nonpayable$_t_address_$returns$__$",
                        "typeString": "function (address)"
                      }
                    },
                    "id": 2061,
                    "isConstant": false,
                    "isLValue": false,
                    "isPure": false,
                    "kind": "functionCall",
                    "lValueRequested": false,
                    "names": [],
                    "nodeType": "FunctionCall",
                    "src": "777:20:8",
                    "typeDescriptions": {
                      "typeIdentifier": "t_tuple$__$",
                      "typeString": "tuple()"
                    }
                  },
                  "id": 2062,
                  "nodeType": "EmitStatement",
                  "src": "772:25:8"
                }
              ]
            },
            "documentation": null,
            "id": 2064,
            "implemented": true,
            "kind": "function",
            "modifiers": [],
            "name": "_addPauser",
            "nodeType": "FunctionDefinition",
            "parameters": {
              "id": 2051,
              "nodeType": "ParameterList",
              "parameters": [
                {
                  "constant": false,
                  "id": 2050,
                  "name": "account",
                  "nodeType": "VariableDeclaration",
                  "scope": 2064,
                  "src": "705:15:8",
                  "stateVariable": false,
                  "storageLocation": "default",
                  "typeDescriptions": {
                    "typeIdentifier": "t_address",
                    "typeString": "address"
                  },
                  "typeName": {
                    "id": 2049,
                    "name": "address",
                    "nodeType": "ElementaryTypeName",
                    "src": "705:7:8",
                    "stateMutability": "nonpayable",
                    "typeDescriptions": {
                      "typeIdentifier": "t_address",
                      "typeString": "address"
                    }
                  },
                  "value": null,
                  "visibility": "internal"
                }
              ],
              "src": "704:17:8"
            },
            "returnParameters": {
              "id": 2052,
              "nodeType": "ParameterList",
              "parameters": [],
              "src": "731:0:8"
            },
            "scope": 2081,
            "src": "685:119:8",
            "stateMutability": "nonpayable",
            "superFunction": null,
            "visibility": "internal"
          },
          {
            "body": {
              "id": 2079,
              "nodeType": "Block",
              "src": "859:78:8",
              "statements": [
                {
                  "expression": {
                    "argumentTypes": null,
                    "arguments": [
                      {
                        "argumentTypes": null,
                        "id": 2072,
                        "name": "account",
                        "nodeType": "Identifier",
                        "overloadedDeclarations": [],
                        "referencedDeclaration": 2066,
                        "src": "885:7:8",
                        "typeDescriptions": {
                          "typeIdentifier": "t_address",
                          "typeString": "address"
                        }
                      }
                    ],
                    "expression": {
                      "argumentTypes": [
                        {
                          "typeIdentifier": "t_address",
                          "typeString": "address"
                        }
                      ],
                      "expression": {
                        "argumentTypes": null,
                        "id": 2069,
                        "name": "_pausers",
                        "nodeType": "Identifier",
                        "overloadedDeclarations": [],
                        "referencedDeclaration": 1994,
                        "src": "869:8:8",
                        "typeDescriptions": {
                          "typeIdentifier": "t_struct$_Role_$1891_storage",
                          "typeString": "struct Roles.Role storage ref"
                        }
                      },
                      "id": 2071,
                      "isConstant": false,
                      "isLValue": true,
                      "isPure": false,
                      "lValueRequested": false,
                      "memberName": "remove",
                      "nodeType": "MemberAccess",
                      "referencedDeclaration": 1954,
                      "src": "869:15:8",
                      "typeDescriptions": {
                        "typeIdentifier": "t_function_internal_nonpayable$_t_struct$_Role_$1891_storage_ptr_$_t_address_$returns$__$bound_to$_t_struct$_Role_$1891_storage_ptr_$",
                        "typeString": "function (struct Roles.Role storage pointer,address)"
                      }
                    },
                    "id": 2073,
                    "isConstant": false,
                    "isLValue": false,
                    "isPure": false,
                    "kind": "functionCall",
                    "lValueRequested": false,
                    "names": [],
                    "nodeType": "FunctionCall",
                    "src": "869:24:8",
                    "typeDescriptions": {
                      "typeIdentifier": "t_tuple$__$",
                      "typeString": "tuple()"
                    }
                  },
                  "id": 2074,
                  "nodeType": "ExpressionStatement",
                  "src": "869:24:8"
                },
                {
                  "eventCall": {
                    "argumentTypes": null,
                    "arguments": [
                      {
                        "argumentTypes": null,
                        "id": 2076,
                        "name": "account",
                        "nodeType": "Identifier",
                        "overloadedDeclarations": [],
                        "referencedDeclaration": 2066,
                        "src": "922:7:8",
                        "typeDescriptions": {
                          "typeIdentifier": "t_address",
                          "typeString": "address"
                        }
                      }
                    ],
                    "expression": {
                      "argumentTypes": [
                        {
                          "typeIdentifier": "t_address",
                          "typeString": "address"
                        }
                      ],
                      "id": 2075,
                      "name": "PauserRemoved",
                      "nodeType": "Identifier",
                      "overloadedDeclarations": [],
                      "referencedDeclaration": 1992,
                      "src": "908:13:8",
                      "typeDescriptions": {
                        "typeIdentifier": "t_function_event_nonpayable$_t_address_$returns$__$",
                        "typeString": "function (address)"
                      }
                    },
                    "id": 2077,
                    "isConstant": false,
                    "isLValue": false,
                    "isPure": false,
                    "kind": "functionCall",
                    "lValueRequested": false,
                    "names": [],
                    "nodeType": "FunctionCall",
                    "src": "908:22:8",
                    "typeDescriptions": {
                      "typeIdentifier": "t_tuple$__$",
                      "typeString": "tuple()"
                    }
                  },
                  "id": 2078,
                  "nodeType": "EmitStatement",
                  "src": "903:27:8"
                }
              ]
            },
            "documentation": null,
            "id": 2080,
            "implemented": true,
            "kind": "function",
            "modifiers": [],
            "name": "_removePauser",
            "nodeType": "FunctionDefinition",
            "parameters": {
              "id": 2067,
              "nodeType": "ParameterList",
              "parameters": [
                {
                  "constant": false,
                  "id": 2066,
                  "name": "account",
                  "nodeType": "VariableDeclaration",
                  "scope": 2080,
                  "src": "833:15:8",
                  "stateVariable": false,
                  "storageLocation": "default",
                  "typeDescriptions": {
                    "typeIdentifier": "t_address",
                    "typeString": "address"
                  },
                  "typeName": {
                    "id": 2065,
                    "name": "address",
                    "nodeType": "ElementaryTypeName",
                    "src": "833:7:8",
                    "stateMutability": "nonpayable",
                    "typeDescriptions": {
                      "typeIdentifier": "t_address",
                      "typeString": "address"
                    }
                  },
                  "value": null,
                  "visibility": "internal"
                }
              ],
              "src": "832:17:8"
            },
            "returnParameters": {
              "id": 2068,
              "nodeType": "ParameterList",
              "parameters": [],
              "src": "859:0:8"
            },
            "scope": 2081,
            "src": "810:127:8",
            "stateMutability": "nonpayable",
            "superFunction": null,
            "visibility": "internal"
          }
        ],
        "scope": 2082,
        "src": "49:890:8"
      }
    ],
    "src": "0:940:8"
  },
  "compiler": {
    "name": "solc",
    "version": "0.5.8+commit.23d335f2.Emscripten.clang"
  },
  "networks": {},
  "schemaVersion": "3.0.11",
  "updatedAt": "2019-07-29T11:07:54.930Z",
  "devdoc": {
    "methods": {}
  },
  "userdoc": {
    "methods": {}
  }
}